<?xml version="1.0" encoding="UTF-8"?>
<!DOCTYPE svg PUBLIC "-//W3C//DTD SVG 1.1//EN" "http://www.w3.org/Graphics/SVG/1.1/DTD/svg11.dtd">
<!-- Creator: CorelDRAW 2018 (64-Bit) -->
<svg xmlns="http://www.w3.org/2000/svg" xml:space="preserve" width="60px" height="51px" version="1.1" style="shape-rendering:geometricPrecision; text-rendering:geometricPrecision; image-rendering:optimizeQuality; fill-rule:evenodd; clip-rule:evenodd"
viewBox="0 0 717 601"
 xmlns:xlink="http://www.w3.org/1999/xlink">
 <defs>
  <style type="text/css">
   <![CDATA[
    .cpr-fil0 {fill:black}
    .cpr-fil1 {fill:#D90F31}
   ]]>
  </style>
 </defs>
 <g id="Слой_x0020_1">
  <metadata id="CorelCorpID_0Corel-Layer"/>
  <g id="_2317334576704">
   <path class="cpr-fil0" d="M105 458c-35,15 -59,60 -35,105 17,33 62,48 96,31 4,-2 10,-6 13,-7 17,10 33,18 58,13 64,-13 82,-95 31,-133 -3,-3 -7,-6 -11,-7 -3,-2 -4,-1 -5,-4 -4,-15 -3,-17 -14,-33 -9,-11 -26,-24 -47,-27 -44,-7 -81,25 -86,62zm212 -115c-33,6 -49,59 -28,87 21,29 66,9 69,-39 1,-14 -3,-27 -10,-35 -5,-8 -16,-16 -31,-13zm-288 0c-23,5 -34,32 -27,59 5,21 21,46 48,41 32,-7 38,-60 11,-88 -6,-7 -17,-15 -32,-12zm201 -98c-45,10 -53,83 -25,114 38,42 86,-3 81,-57 -3,-30 -25,-64 -56,-57zm-116 0c-28,6 -45,38 -42,73 3,29 24,63 56,57 27,-6 44,-38 41,-72 -2,-30 -23,-64 -55,-58z"/>
   <path class="cpr-fil1" d="M464 214c-35,14 -60,60 -36,105 18,33 63,48 97,31 4,-2 10,-6 13,-7 16,10 33,18 58,13 64,-13 81,-95 31,-133 -3,-3 -8,-6 -11,-7 -3,-2 -4,-2 -5,-5 -5,-14 -3,-17 -15,-32 -9,-12 -25,-24 -47,-27 -43,-7 -81,25 -85,62zm212 -115c-34,6 -49,59 -28,87 21,29 66,9 68,-39 1,-14 -3,-27 -9,-35 -6,-8 -17,-16 -31,-13zm-288 0c-23,4 -34,32 -28,59 5,21 22,46 48,41 32,-7 39,-61 12,-89 -7,-7 -17,-14 -32,-11zm200 -98c-44,10 -53,83 -25,114 38,42 86,-3 81,-57 -2,-30 -24,-64 -56,-57zm-116 0c-27,5 -44,38 -41,72 2,30 23,64 55,58 27,-6 45,-38 42,-73 -3,-29 -24,-64 -56,-57z"/>
  </g>
 </g>
</svg>
