<?xml version="1.0" encoding="UTF-8"?>
<!DOCTYPE svg PUBLIC "-//W3C//DTD SVG 1.1//EN" "http://www.w3.org/Graphics/SVG/1.1/DTD/svg11.dtd">
<!-- Creator: CorelDRAW 2018 (64-Bit) -->
<svg xmlns="http://www.w3.org/2000/svg" xml:space="preserve" width="52px" height="51px" version="1.1" style="shape-rendering:geometricPrecision; text-rendering:geometricPrecision; image-rendering:optimizeQuality; fill-rule:evenodd; clip-rule:evenodd"
viewBox="0 0 852 826"
 xmlns:xlink="http://www.w3.org/1999/xlink">
 <defs>
  <style type="text/css">
   <![CDATA[
    .kc-fil0 {fill:#4D4D4D}
    .kc-fil1 {fill:#D90F31}
   ]]>
  </style>
 </defs>
 <g id="Слой_x0020_1">
  <metadata id="CorelCorpID_0Corel-Layer"/>
  <g id="_1517504691696">
   <path class="kc-fil0" d="M423 178c-10,0 -14,8 -14,16 0,7 2,4 -4,10l-41 39c-1,-19 -34,-45 -70,-28 -15,8 -41,41 -55,56 -23,26 -34,29 -39,72 -2,15 -4,34 -6,48 -3,19 -1,48 -1,71 0,5 -19,22 -24,25 -27,-40 -115,-83 -79,-135 5,-7 264,-267 272,-273 22,42 89,56 126,0 9,6 198,198 215,215 13,12 24,23 36,35 17,17 28,24 28,51 0,26 -19,38 -33,51l-255 256c-20,19 -26,33 -58,33 -20,0 -35,-17 -45,-27 -10,-10 -31,-29 -37,-38 7,-10 27,-30 39,-33 18,-5 39,-2 63,-13 18,-8 61,-54 78,-71l112 -112c20,-21 28,-25 28,-55 0,-22 -16,-35 -33,-44 9,-19 6,-37 -5,-53 -7,-10 -13,-12 -24,-18 30,-44 -15,-100 -67,-73 -1,-15 -24,-34 -44,-34 -27,0 -31,4 -50,24 -10,10 -5,5 -13,5zm-30 -120l62 0c-2,9 -16,20 -29,20l-2 0c-16,0 -25,-10 -31,-20zm-156 -31c0,20 11,26 24,39 8,8 23,22 29,30l-36 37c-20,-14 -46,-57 -70,-57 -16,0 -27,12 -27,27 0,22 20,24 20,42 0,16 -12,27 -28,27 -29,0 -46,-56 -78,-56 -16,0 -29,14 -29,29 0,16 32,43 44,54 13,13 36,40 51,50l-36 37c-15,-11 -42,-50 -59,-50 -17,0 -31,9 -31,27 0,17 13,26 22,35 8,7 21,22 29,27 -62,93 50,145 80,190 -8,12 -106,107 -127,128 -7,7 -15,13 -15,25 0,14 13,16 24,16 8,0 47,-43 55,-50l134 -134c24,-25 18,-39 18,-73 0,-7 -1,-10 -1,-14 0,-4 1,-9 1,-15 2,-9 3,-19 4,-29 5,-33 4,-44 25,-66l45 -48c9,-11 25,-8 25,8 0,5 -10,15 -14,20 -10,12 -41,42 -40,57 0,18 20,26 35,10l149 -149c7,-7 13,-14 24,-14 6,0 11,7 11,13 0,11 -24,30 -32,38 -13,13 -104,100 -104,109 0,14 5,27 22,27 16,0 35,-25 47,-36l104 -105c5,-5 16,-19 23,-19 11,0 13,6 13,15 0,5 -14,17 -18,21l-105 105c-8,7 -14,13 -21,21 -6,6 -16,14 -16,26 0,12 11,23 24,23 15,0 30,-20 39,-29l87 -87c8,-8 13,-16 25,-16 9,0 14,12 7,21 -19,24 -131,121 -131,137 0,12 6,20 15,23 12,4 19,-2 26,-9 33,-32 64,-66 98,-97 11,-11 23,-5 23,10 0,6 -22,25 -27,30l-141 141c-43,43 -26,22 -80,34 -17,4 -27,9 -37,20l-184 184c-7,6 -12,10 -12,21 0,11 12,19 21,17 11,-1 18,-11 24,-18 19,-18 116,-112 125,-125 24,16 46,50 72,66 25,16 62,13 87,-1 7,-3 6,-5 12,-6 12,7 15,21 34,21 16,0 28,-13 28,-27 0,-16 -17,-24 -24,-35l38 -36c25,17 54,66 78,63 16,-2 24,-16 24,-30 0,-16 -20,-20 -20,-38 0,-21 15,-28 31,-28 14,0 78,70 91,83 15,14 28,28 43,42 8,9 17,12 31,7 8,-4 17,-15 17,-26 0,-13 -10,-22 -17,-29 -24,-24 -153,-150 -161,-162l36 -35c13,9 15,22 35,22 15,0 27,-13 27,-27 0,-17 -16,-24 -24,-35 8,-5 29,-27 37,-35 31,-34 24,-91 -7,-122l-277 -277c-6,-6 -15,-18 -26,-18l-102 0c-14,0 -31,29 -43,37 -8,-6 -21,-20 -29,-28 -13,-13 -20,-25 -41,-25 -11,0 -23,12 -23,24z"/>
   <path class="kc-fil1" d="M668 759c0,20 3,18 23,38 17,16 18,24 39,24 6,0 14,-6 17,-9 20,-24 -8,-44 -17,-53 -8,-8 -20,-24 -34,-24 -14,0 -28,11 -28,24z"/>
   <path class="kc-fil1" d="M117 67c23,0 31,-8 31,-31 0,-15 -35,-52 -59,-28 -9,9 -10,25 -3,36 5,7 21,23 31,23z"/>
   <path class="kc-fil1" d="M545 793c0,36 56,37 56,0 0,-36 -56,-36 -56,0z"/>
   <path class="kc-fil1" d="M774 564c0,37 56,36 56,0 0,-6 -4,-15 -6,-19 -14,-16 -50,-10 -50,19z"/>
   <path class="kc-fil1" d="M672 378c0,18 29,20 29,0 0,-22 -29,-16 -29,0z"/>
   <path class="kc-fil1" d="M149 374c0,8 0,19 17,19 14,0 16,-29 -2,-29 -7,0 -15,5 -15,10z"/>
   <path class="kc-fil1" d="M423 655c20,0 18,-29 1,-29 -21,0 -18,29 -1,29z"/>
   <path class="kc-fil1" d="M437 145c0,-29 -43,-9 -24,10 8,8 24,3 24,-10z"/>
   <path class="kc-fil1" d="M129 378c0,-29 -42,-9 -24,10 9,9 24,3 24,-10z"/>
   <path class="kc-fil1" d="M750 378c0,-29 -42,-9 -24,10 9,9 24,3 24,-10z"/>
   <path class="kc-fil1" d="M437 690c0,-29 -43,-10 -24,9 8,9 24,4 24,-9z"/>
  </g>
 </g>
</svg>
