<?xml version="1.0" encoding="UTF-8"?>
<!DOCTYPE svg PUBLIC "-//W3C//DTD SVG 1.1//EN" "http://www.w3.org/Graphics/SVG/1.1/DTD/svg11.dtd">
<!-- Creator: CorelDRAW 2018 (64-Bit) -->
<svg xmlns="http://www.w3.org/2000/svg" xml:space="preserve" width="51px" height="42px" version="1.1" style="shape-rendering:geometricPrecision; text-rendering:geometricPrecision; image-rendering:optimizeQuality; fill-rule:evenodd; clip-rule:evenodd"
viewBox="0 0 1059 880"
 xmlns:xlink="http://www.w3.org/1999/xlink">
 <defs>
  <style type="text/css">
   <![CDATA[
    .icon-ef-1 {fill:#4D4D4D}
    .icon-ef-2 {fill:#D90F31}
   ]]>
  </style>
 </defs>
 <g id="Слой_x0020_1">
  <metadata id="CorelCorpID_0Corel-Layer"/>
  <g id="_2317321746496">
   <path class="icon-ef-1" d="M473 275c2,5 1,3 4,6l7 5c29,28 101,121 108,162l9 25c5,12 8,52 16,57l33 -34c15,-16 57,-50 75,-61 30,-19 -67,109 -72,115 -11,17 -18,36 -28,53l-7 14c-2,5 -2,10 -1,18 -2,15 -8,65 -14,78 -3,8 -6,23 -9,31 -18,38 -23,50 -46,86 -4,13 -6,41 -11,50 10,0 17,-1 26,-2 128,-33 207,-56 315,-134 205,-189 187,-384 173,-643 -1,-8 -2,-10 -2,-20 0,-10 -2,-32 -3,-41 -2,-16 3,-27 -4,-40 -9,1 -20,3 -30,4 -56,7 -101,17 -156,31 -106,40 -331,143 -383,240z"/>
   <path class="icon-ef-2" d="M320 832c17,5 89,28 102,28 6,0 14,4 8,-18 -37,-136 -56,-209 -142,-330 -3,-4 -7,-9 -10,-13 -4,-5 -12,-13 -13,-18 19,13 39,30 57,45 66,55 144,182 167,270 2,8 -1,8 3,14 11,13 39,-38 42,-44 3,-5 2,-3 4,-6 4,-5 3,-8 6,-13 2,-3 2,-2 3,-6 8,-25 14,-42 18,-68l4 -33c1,-154 -15,-219 -130,-333 -112,-90 -245,-163 -392,-175 -6,-1 -23,-2 -27,-4 -2,0 -10,-11 -12,14 -6,124 -15,227 0,353 11,48 27,118 53,153l17 24c52,82 153,130 242,160z"/>
  </g>
 </g>
</svg>
