<?xml version="1.0" encoding="UTF-8"?>
<!DOCTYPE svg PUBLIC "-//W3C//DTD SVG 1.1//EN" "http://www.w3.org/Graphics/SVG/1.1/DTD/svg11.dtd">
<!-- Creator: CorelDRAW 2018 (64-Bit) -->
<svg xmlns="http://www.w3.org/2000/svg" xml:space="preserve" width="58px" height="58px" version="1.1" style="shape-rendering:geometricPrecision; text-rendering:geometricPrecision; image-rendering:optimizeQuality; fill-rule:evenodd; clip-rule:evenodd"
viewBox="0 0 636 636"
 xmlns:xlink="http://www.w3.org/1999/xlink">
 <defs>
  <style type="text/css">
   <![CDATA[
    .icon-en {fill:#4D4D4D}
   ]]>
  </style>
 </defs>
 <g id="Слой_x0020_1">
  <metadata id="CorelCorpID_0Corel-Layer"/>
  <path class="icon-en" d="M318 202c20,0 42,7 57,16 7,4 14,9 20,15l11 11c6,7 7,8 12,17 1,3 3,6 5,10 5,12 10,26 10,40 0,3 0,4 0,7 0,5 -2,20 -3,25 -2,9 -4,14 -7,22 -8,18 -23,37 -39,47 -20,13 -40,21 -66,21 -12,0 -27,-2 -37,-6 -4,-2 -7,-3 -10,-4 -36,-16 -63,-52 -67,-91l-1 -27c4,-24 13,-48 30,-65 1,-1 2,-2 3,-4l8 -7c3,-2 5,-4 8,-6 8,-5 9,-6 18,-10 12,-6 31,-11 48,-11zm-318 113c0,9 1,17 9,24 4,4 12,8 20,8l58 0c8,0 15,-4 20,-8 18,-16 8,-50 -20,-50l-58 0c-8,0 -16,3 -20,7 -4,4 -9,12 -9,19zm84 -202c0,13 5,17 12,24l35 35c2,2 3,3 4,5 2,1 4,2 6,3 15,9 43,0 43,-26 0,-12 -6,-17 -12,-23l-39 -39c-2,-2 -3,-2 -5,-4 -18,-11 -44,2 -44,25zm205 436l0 58c0,16 13,29 25,29 10,0 18,-1 25,-9 4,-5 8,-12 8,-20l0 -58c0,-15 -13,-29 -26,-29 -9,0 -17,1 -25,9 -4,4 -7,12 -7,20zm260 -202l58 0c11,0 21,-7 26,-15 1,-4 2,-8 3,-12l0 -5c-1,-4 -2,-7 -3,-11 -5,-9 -15,-15 -26,-15l-58 0c-16,0 -29,13 -29,29 0,16 13,29 29,29zm-260 -318l0 58c0,16 13,29 29,29 16,0 29,-13 29,-29l0 -58c0,-16 -13,-29 -26,-29 -9,0 -17,1 -25,9 -4,4 -7,12 -7,20zm-205 492c0,30 34,37 48,23l40 -39c7,-7 12,-12 12,-24 0,-24 -27,-35 -44,-25 -7,4 -39,37 -48,46 -2,3 -2,3 -4,6 -2,3 -4,8 -4,13zm368 -367c0,24 27,36 43,26 7,-4 36,-35 44,-43 9,-8 12,-12 12,-25 0,-19 -23,-35 -43,-24 -6,3 -38,36 -44,43 -4,3 -6,5 -8,9 -2,3 -4,10 -4,14zm0 327c0,5 2,11 4,14 3,6 46,49 52,53 15,9 43,1 43,-27 0,-5 -1,-10 -3,-13 -4,-7 -40,-43 -47,-48 -21,-18 -49,-2 -49,21zm-308 -163c0,11 2,27 4,38 3,13 7,22 11,33 3,5 5,9 7,14 5,9 12,18 18,26 6,8 14,15 22,22 16,15 49,31 72,36 13,3 27,4 39,5l20 -2c18,-1 43,-9 59,-17 3,-1 4,-2 7,-4 16,-8 36,-26 48,-39 3,-4 6,-8 9,-13 5,-7 13,-20 16,-27 20,-50 22,-92 0,-143 -2,-5 -4,-10 -7,-14l-10 -17c-6,-9 -11,-13 -18,-21 -32,-32 -74,-51 -123,-51 -14,0 -27,2 -39,4 -11,3 -23,7 -33,11 -11,5 -30,17 -40,25 -2,2 -3,3 -5,6l-16 16c-8,8 -21,29 -26,40 -4,11 -7,20 -10,33 -3,11 -5,27 -5,39z"/>
 </g>
</svg>
