<?xml version="1.0" encoding="UTF-8"?>
<!DOCTYPE svg PUBLIC "-//W3C//DTD SVG 1.1//EN" "http://www.w3.org/Graphics/SVG/1.1/DTD/svg11.dtd">
<!-- Creator: CorelDRAW 2018 (64-Bit) -->
<svg xmlns="http://www.w3.org/2000/svg" xml:space="preserve" width="56px" height="55px" version="1.1" style="shape-rendering:geometricPrecision; text-rendering:geometricPrecision; image-rendering:optimizeQuality; fill-rule:evenodd; clip-rule:evenodd"
viewBox="0 0 583 583"
 xmlns:xlink="http://www.w3.org/1999/xlink">
 <defs>
  <style type="text/css">
   <![CDATA[
    .kins-fil0 {fill:#4D4D4D}
    .kins-fil1 {fill:#D90F31}
   ]]>
  </style>
 </defs>
 <g id="Слой_x0020_1">
  <metadata id="CorelCorpID_0Corel-Layer"/>
  <g id="_1517504688240">
   <path class="kins-fil0" d="M405 429c0,-7 -5,-14 -8,-19 10,-2 61,-42 76,-42 6,0 16,0 19,5 -5,1 -73,49 -87,56zm-65 -37l50 -31c10,-4 21,-7 33,-5 2,1 4,2 6,3 -1,2 -4,3 -9,6l-40 25c-4,2 -6,5 -11,4 -5,0 -8,-1 -14,-1 -6,0 -9,-1 -15,-1zm-340 0c0,7 5,14 13,14 5,0 41,-17 48,-21 6,-2 11,-5 17,-7 21,-9 47,-23 71,-23 17,0 34,0 49,6 25,8 30,29 52,39 17,9 37,13 57,16 5,0 11,1 17,1 11,2 56,-2 56,17 0,12 -2,16 -14,19 -14,5 -55,3 -71,3 -40,0 -89,-14 -92,-14 -11,0 -18,16 -9,23 3,3 5,4 10,5 23,5 46,11 71,11l80 0c11,0 22,-3 29,-7 4,-2 7,-4 11,-6 4,-3 7,-5 11,-7l43 -29c7,-4 14,-9 21,-14 18,-10 49,-36 71,-36 5,0 9,-1 13,3 1,1 4,5 4,6 0,12 -21,25 -30,31 -21,14 -42,28 -63,41l-25 17c-33,22 -67,43 -101,64 -23,13 -38,17 -63,7 -24,-9 -59,-29 -83,-41 -10,-5 -18,-9 -27,-14 -13,-6 -22,-11 -38,-11 -17,0 -39,18 -54,27 -5,3 -13,7 -13,14 0,8 6,15 13,15 7,0 27,-15 34,-19 27,-17 25,-13 65,8l40 20c13,6 26,13 39,19 19,10 33,14 56,14 16,0 33,-9 43,-15 24,-15 47,-30 71,-45l105 -68c16,-11 37,-22 48,-39 8,-11 11,-26 5,-39 -5,-12 -18,-22 -33,-22 -16,0 -16,2 -29,5 -7,-10 -24,-18 -38,-18l-11 0c-12,0 -11,6 -20,-1 -1,-1 -3,-2 -5,-3 -27,-17 -58,-7 -83,9l-21 13c-3,2 -5,3 -7,5l-27 17c-7,4 -8,6 -17,4 -42,-10 -25,-13 -54,-35 -16,-11 -41,-22 -68,-22 -24,0 -40,1 -62,9 -25,11 -49,20 -74,32 -12,6 -31,11 -31,22z"/>
   <path class="kins-fil1" d="M189 71l11 -10c3,1 21,14 24,16 7,6 6,5 14,5 3,0 11,-5 18,-8 26,-10 20,0 27,-36 1,-4 2,-9 2,-12 20,0 15,-5 19,21 3,16 2,21 16,24 21,6 25,19 41,7l24 -16 11 11 -18 25c-9,12 -4,13 4,29 1,4 2,6 3,10 2,7 2,13 13,15l28 4c6,1 5,-1 5,17 -4,0 -8,1 -11,2 -4,1 -8,1 -12,2 -27,4 -18,5 -27,26 -2,3 -3,7 -5,9 -8,15 1,18 13,37 2,3 4,5 6,8l-11 12 -17 -12c-22,-17 -17,-12 -38,-3 -24,10 -21,-2 -28,39 -2,13 2,10 -18,10 0,-4 -1,-8 -1,-11 -6,-38 -3,-28 -28,-38 -7,-3 -15,-9 -19,-9 -7,0 -30,18 -36,23l-11 -11c1,-3 15,-22 17,-24 12,-16 2,-15 -7,-44 -2,-6 -3,-9 -9,-11 -3,-1 -6,-1 -9,-2l-26 -4c0,-20 -3,-16 9,-18 38,-6 29,-1 39,-26 1,-4 3,-6 4,-10 5,-8 7,-12 1,-21l-18 -26zm66 -23c-7,1 -12,5 -18,7l-27 -20c-10,-7 -14,-7 -23,2l-15 15c-6,5 -13,8 -13,18 0,6 4,9 6,13l16 22c3,5 1,5 -2,13 -4,10 2,6 -27,11 -30,5 -25,1 -25,56 0,12 22,12 34,15 4,0 10,2 15,2 0,5 5,13 6,17 -2,3 -4,6 -6,9 -3,3 -5,6 -7,9 -5,8 -11,13 -11,21 0,10 17,21 26,32 10,13 19,7 28,0l13 -8c15,-11 10,-8 20,-5 2,1 6,3 8,3l5 29c0,3 2,11 3,13 1,3 6,7 10,7l42 0c4,0 8,-4 9,-7 2,-3 6,-35 8,-42l14 -5c2,-1 1,0 2,-1 4,3 32,24 37,24 10,0 9,0 16,-7l20 -19c14,-14 4,-20 -9,-40 -14,-20 -7,-8 -2,-29 4,0 10,-1 14,-2 5,-1 10,-1 14,-2 26,-4 21,-5 21,-55 0,-12 -19,-12 -30,-14 -22,-4 -17,0 -22,-11 -3,-10 -6,-6 4,-19 3,-4 5,-7 7,-11 6,-8 13,-14 9,-24 -1,-2 -22,-23 -27,-28 -12,-13 -20,-3 -35,8 -4,3 -8,5 -12,8 -5,4 -3,2 -12,-2 -10,-3 -8,-1 -9,-10l-5 -32c-2,-4 -6,-9 -11,-9l-43 0c-4,0 -7,4 -8,7 -2,3 -3,10 -3,13 -1,5 -2,9 -3,14 -1,4 -2,10 -2,14z"/>
   <path class="kins-fil1" d="M254 169l0 -8c0,-15 17,-34 36,-34 22,0 39,18 39,37 0,12 -4,21 -11,29 -6,5 -16,10 -26,10 -14,1 -27,-9 -34,-20 -2,-4 -4,-9 -4,-14zm-26 -8c0,22 4,35 18,49 16,16 29,19 51,19 15,0 30,-9 41,-19 22,-22 24,-62 2,-86 -4,-5 -6,-7 -12,-11 -19,-13 -41,-15 -62,-6 -21,9 -38,31 -38,54z"/>
  </g>
 </g>
</svg>
