<?xml version="1.0" encoding="UTF-8"?>
<!DOCTYPE svg PUBLIC "-//W3C//DTD SVG 1.1//EN" "http://www.w3.org/Graphics/SVG/1.1/DTD/svg11.dtd">
<!-- Creator: CorelDRAW 2018 (64-Bit) -->
<svg xmlns="http://www.w3.org/2000/svg" xml:space="preserve" width="130px" height="105px" version="1.1" style="shape-rendering:geometricPrecision; text-rendering:geometricPrecision; image-rendering:optimizeQuality; fill-rule:evenodd; clip-rule:evenodd"
viewBox="0 0 16604 13424"
 xmlns:xlink="http://www.w3.org/1999/xlink">
 <defs>
  <style type="text/css">
   <![CDATA[
    .3r-fil1 {fill:#4D4D4D}
    .3r-fil0 {fill:#4D4D4D;fill-rule:nonzero}
   ]]>
  </style>
 </defs>
 <g id="Слой_x0020_1">
  <metadata id="CorelCorpID_0Corel-Layer"/>
  <g id="_2317139735600">
   <path class="3r-fil0" d="M4402 10654l0 -169 6600 0 0 113c0,263 -106,497 -266,668 -173,185 -409,298 -643,298l-4782 0c-229,0 -457,-113 -626,-282 -170,-170 -283,-398 -283,-628zm6366 56l-6138 0c17,149 98,297 214,412 129,130 300,216 467,216l4782 0c171,0 348,-85 478,-225 100,-107 173,-246 197,-403zm597 679c21,-31 42,-61 66,-89 21,-27 45,-54 74,-82l265 -303c16,-17 21,-25 27,-34 144,-191 339,-388 500,-570l21 -29c50,-68 116,-158 222,-158l1556 0c28,0 56,10 82,27 47,31 104,106 144,202 37,89 65,201 65,320 0,123 -30,255 -111,377 -82,125 -187,217 -306,292 -115,72 -242,128 -377,182 -159,64 -554,53 -849,45 -78,-3 -148,-5 -223,-5l-1273 0 117 -175zm570 -322l-237 271 823 0 229 6c275,8 643,18 760,-29 124,-50 241,-101 340,-163 94,-59 176,-131 239,-226 52,-80 72,-169 72,-253 0,-88 -20,-169 -47,-233 -17,-43 -34,-74 -47,-90l-1527 0c-8,0 -20,37 -40,65 -149,194 -338,387 -501,573l-18 24c-11,15 -21,28 -46,55zm-10627 -943l1556 0c97,0 283,220 385,341 312,367 627,733 941,1099l-1288 0c-83,0 -157,3 -239,5 -289,9 -651,19 -829,-41 -75,-25 -150,-56 -222,-92 -191,-94 -366,-223 -476,-384 -119,-172 -166,-377 -86,-610 11,-33 25,-67 43,-103l11 -27c36,-81 82,-188 204,-188zm1556 226l-1556 0c-25,0 12,29 3,51l-17 38c-12,24 -22,49 -31,75 -53,157 -22,295 58,411 87,127 231,231 390,310 64,30 129,57 195,80 140,47 480,37 751,29l245 -6 799 0 -624 -727c-78,-93 -206,-261 -213,-261zm7191 -247l-4706 0c-248,0 -422,-38 -564,-115 -143,-77 -246,-189 -354,-338 -99,-137 -178,-308 -232,-499 -53,-187 -82,-394 -82,-603l0 -112 7170 0 0 112c0,282 -61,594 -179,860 -107,243 -263,449 -467,566 -87,50 -170,82 -266,103 -93,19 -195,26 -320,26zm-4706 -225l4706 0c112,0 200,-6 274,-22 71,-15 134,-39 200,-78 159,-90 284,-259 373,-461 89,-202 142,-435 156,-656l-6712 0c8,150 32,296 70,430 46,164 113,312 197,427 90,123 172,214 279,272 108,58 248,88 457,88zm6414 -1064c0,-272 199,-456 362,-607l1 -2c199,-183 564,-430 918,-615 303,-158 605,-274 805,-274 296,0 540,137 704,340 72,89 129,192 167,300 39,110 59,226 59,343 0,277 -114,559 -372,768 -250,202 -450,202 -833,201 -146,0 -292,2 -438,4 -557,-1 -1373,-48 -1373,-458zm514 -442c-129,120 -288,267 -288,442 0,208 682,233 1147,233l438 -3c331,0 503,0 692,-152 200,-162 287,-380 287,-593 0,-92 -16,-183 -45,-268 -30,-85 -74,-165 -130,-234 -123,-153 -307,-255 -529,-255 -160,0 -426,105 -701,248 -340,177 -686,410 -869,580l-2 2zm-11651 -51c0,-283 101,-531 264,-710 169,-184 404,-295 665,-295 112,0 267,43 423,102 204,77 415,183 530,253l82 49c245,147 436,263 676,474 538,475 465,751 151,913 -251,130 -692,155 -1027,160 -31,1 -57,4 -80,7 -46,6 -85,11 -152,2 -105,-15 -217,-12 -331,-9 -276,7 -559,14 -819,-190 -52,-41 -99,-83 -142,-131 -43,-48 -82,-102 -118,-165 -35,-64 -68,-142 -90,-226 -20,-74 -32,-154 -32,-234zm430 -559c-127,138 -204,333 -204,559 0,61 9,122 24,177 17,66 42,125 69,173 26,48 55,88 88,124 33,37 71,71 114,104 198,155 439,150 675,144 124,-3 247,-7 367,10 38,5 62,2 91,-2 28,-3 59,-8 107,-8 310,-5 716,-26 927,-136 149,-77 154,-235 -197,-544 -226,-198 -409,-309 -643,-450l-82 -50c-107,-64 -304,-163 -493,-234 -133,-50 -261,-87 -344,-87 -197,0 -373,82 -499,220zm4104 -3709l4673 0c14,76 30,152 49,226l-4722 0c-146,0 -297,32 -432,81 -146,54 -271,128 -349,204l-586 568 -294 295c-49,48 -100,94 -151,140 -46,41 -91,82 -143,135l-388 381 8220 0c101,81 207,157 317,226l-9088 0 780 -767c50,-50 101,-96 151,-142 45,-40 90,-80 142,-133 292,-292 586,-576 883,-864 100,-98 254,-190 429,-254 157,-58 335,-96 509,-96zm-2804 1125l-15 -75c-33,-169 -85,-445 -426,-445 -180,0 -375,7 -555,43 -170,33 -329,93 -446,199 -69,62 -103,131 -109,201 -5,64 11,131 41,198 33,73 84,146 145,214 176,196 430,347 611,362l134 11 -34 130c-26,96 -94,152 -175,217 -31,26 -65,54 -96,85l-166 165c-368,365 -657,651 -859,1210 -36,98 -82,232 -118,373 -35,137 -62,282 -62,407l0 2163c0,162 40,331 102,489 73,184 177,353 287,484 98,117 96,163 89,329 -2,41 -4,93 -4,177l-1 120c-2,298 -2,459 129,657 54,80 141,164 248,225 85,49 185,81 289,81l1119 0c158,0 320,-81 443,-201 122,-119 203,-274 203,-426l0 -360 9143 0 0 360c0,152 82,307 204,426 123,120 285,201 442,201l1120 0c100,0 199,-32 285,-80 106,-59 193,-140 244,-215 138,-205 138,-353 137,-664l-1 -105c0,-72 -2,-118 -4,-158 -6,-163 -10,-250 81,-358 36,-43 70,-86 101,-131 32,-45 62,-92 89,-141 55,-99 114,-229 154,-370 32,-109 53,-226 53,-340l0 -2163c0,-199 -53,-430 -134,-656 -97,-271 -232,-534 -367,-735 -31,-48 -62,-93 -98,-141 -31,-42 -64,-82 -102,-120l-202 -197c77,-28 153,-59 228,-92l132 129c46,46 87,95 124,145 34,45 69,96 105,151 145,216 290,497 393,784 89,249 147,506 147,732l0 2163c0,134 -25,273 -63,402 -46,160 -112,306 -173,417 -33,58 -66,112 -101,162 -36,50 -74,99 -114,147 -35,41 -33,97 -28,203 2,52 4,113 4,167l0 104c2,358 2,530 -174,791 -69,101 -183,209 -321,285 -119,66 -254,110 -395,110l-1120 0c-217,0 -436,-107 -599,-266 -163,-158 -272,-372 -272,-587l0 -134 -8692 0 0 134c0,215 -109,429 -272,587 -163,159 -382,266 -600,266l-1119 0c-145,0 -282,-45 -400,-111 -139,-79 -253,-190 -324,-296 -170,-255 -168,-440 -167,-783l1 -119c-1,-68 2,-133 4,-185 4,-99 5,-126 -37,-177 -124,-147 -241,-338 -323,-545 -73,-184 -119,-381 -119,-572l0 -2163c0,-144 30,-308 70,-463 39,-151 87,-292 124,-394 220,-606 524,-908 912,-1293l165 -164c38,-38 78,-71 114,-100l5 -5c-195,-71 -409,-216 -566,-390 -76,-84 -140,-177 -183,-272 -46,-101 -69,-206 -60,-309 10,-126 66,-246 182,-351 152,-136 347,-212 554,-253 199,-39 407,-46 598,-46 452,0 571,286 624,519 71,-64 138,-135 205,-206 64,-68 129,-137 200,-203 69,-63 164,-157 267,-257 285,-278 627,-612 875,-759 100,-60 273,-138 451,-194 143,-45 291,-77 414,-77l4838 0c-4,70 -6,140 -6,211l0 15 -4832 0c-98,0 -223,28 -346,66 -162,51 -317,120 -405,173 -225,133 -556,457 -832,726 -95,93 -184,180 -271,261 -66,62 -128,127 -189,192 -116,124 -232,247 -380,346l-135 91 -37 -159z"/>
   <path class="3r-fil0" d="M13137 0c957,0 1824,388 2452,1015 627,628 1015,1495 1015,2452 0,957 -388,1824 -1015,2451 -628,629 -1495,1017 -2452,1017 -957,0 -1824,-388 -2452,-1016 -627,-627 -1015,-1494 -1015,-2452 0,-957 388,-1824 1015,-2451 628,-628 1495,-1016 2452,-1016zm2292 1175c-586,-586 -1397,-949 -2292,-949 -895,0 -1706,362 -2292,949 -587,586 -950,1397 -950,2292 0,895 363,1706 950,2292 586,587 1397,950 2292,950 895,0 1706,-363 2292,-949 587,-587 950,-1397 950,-2293 0,-895 -363,-1705 -950,-2292z"/>
   <path class="3r-fil1" d="M12072 1282c164,-39 340,-65 529,-78 189,-13 376,-19 561,-19 198,0 399,19 603,58 204,39 390,109 557,213 168,103 305,245 410,425 105,181 158,411 158,690 0,275 -50,507 -149,696 -98,190 -229,343 -393,461 -163,119 -350,203 -561,255 -210,52 -427,77 -651,77 -21,0 -57,0 -106,0 -50,0 -101,-1 -155,-3 -54,-2 -106,-5 -158,-9 -52,-5 -88,-9 -110,-13l0 528 1265 0 0 457 -1265 0 0 730 -535 0 0 -730 -423 0 0 -457 423 0 0 -570 -423 0 0 -457 423 0 0 -2254zm1103 367c-112,0 -220,2 -323,7 -103,4 -184,15 -245,32l0 1870c22,8 56,14 104,16 47,2 96,4 148,6 51,2 101,3 148,3 47,0 82,0 103,0 146,0 292,-14 436,-42 143,-28 273,-78 389,-151 117,-73 210,-176 281,-310 71,-133 106,-303 106,-509 0,-176 -33,-323 -99,-441 -67,-119 -155,-213 -265,-284 -109,-71 -233,-122 -371,-152 -137,-30 -275,-45 -412,-45z"/>
  </g>
 </g>
</svg>
