<?xml version="1.0" encoding="UTF-8"?>
<!DOCTYPE svg PUBLIC "-//W3C//DTD SVG 1.1//EN" "http://www.w3.org/Graphics/SVG/1.1/DTD/svg11.dtd">
<!-- Creator: CorelDRAW 2018 (64-Bit) -->
<svg xmlns="http://www.w3.org/2000/svg" xml:space="preserve" width="5.7288mm" height="6.4579mm" version="1.1" style="shape-rendering:geometricPrecision; text-rendering:geometricPrecision; image-rendering:optimizeQuality; fill-rule:evenodd; clip-rule:evenodd"
viewBox="0 0 42.78 48.23"
 xmlns:xlink="http://www.w3.org/1999/xlink">
 <defs>
  <style type="text/css">
   <![CDATA[
    .str0 {stroke:gray;stroke-width:1.26;stroke-linecap:round;stroke-linejoin:round;stroke-miterlimit:22.9256}
    .str1 {stroke:#D90F31;stroke-width:1.26;stroke-linecap:round;stroke-linejoin:round;stroke-miterlimit:22.9256}
    .fil0 {fill:none}
   ]]>
  </style>
 </defs>
 <g id="Слой_x0020_1">
  <metadata id="CorelCorpID_0Corel-Layer"/>
  <path class="fil0 str0" d="M6.29 23.75c-3.77,-4.02 -5.66,-6.03 -5.66,-6.03 0.98,-1.63 1.96,-2.41 2.93,-2.36 3.55,0.09 6.27,1.21 8.17,3.37 2.71,4.46 4.06,6.69 4.06,6.69 13.66,-13.37 20.5,-20.06 20.5,-20.06 1.17,-0.91 2.83,-0.85 3.92,0.15 1.09,1 1.3,2.65 0.5,3.89 -6.57,6.48 -9.85,9.72 -9.85,9.72 0.95,-0.87 2.33,-1.08 3.49,-0.51 1.16,0.57 1.84,1.79 1.73,3.08 -0.12,1.28 -1.01,2.37 -2.25,2.72 0.97,-0.87 2.37,-1.07 3.55,-0.51 1.18,0.56 1.91,1.77 1.85,3.08 -0.06,1.3 -0.9,2.45 -2.12,2.9 0.69,-0.89 1.84,-1.28 2.93,-1 1.09,0.28 1.91,1.17 2.09,2.28 0.18,1.11 -0.31,2.22 -1.26,2.83 -7.43,7.55 -11.14,11.32 -11.14,11.32 -2.63,2.66 -6.78,3.06 -9.88,0.96 -6,-5.88 -9,-8.83 -9,-8.83 -3.03,-9.12 -4.55,-13.68 -4.55,-13.68z"/>
  <line class="fil0 str1" x1="18" y1="0.63" x2="18.04" y2= "6.84" />
  <line class="fil0 str1" x1="8.32" y1="3.42" x2="12.67" y2= "7.85" />
  <line class="fil0 str1" x1="27.49" y1="3.68" x2="23.14" y2= "8.11" />
 </g>
</svg>
