<?xml version="1.0" encoding="UTF-8"?>
<!DOCTYPE svg PUBLIC "-//W3C//DTD SVG 1.1//EN" "http://www.w3.org/Graphics/SVG/1.1/DTD/svg11.dtd">
<!-- Creator: CorelDRAW 2018 (64-Bit) -->
<svg xmlns="http://www.w3.org/2000/svg" xml:space="preserve" width="8.3548mm" height="9.0208mm" version="1.1" style="shape-rendering:geometricPrecision; text-rendering:geometricPrecision; image-rendering:optimizeQuality; fill-rule:evenodd; clip-rule:evenodd"
viewBox="0 0 7635.38 8244.04"
 xmlns:xlink="http://www.w3.org/1999/xlink">
 <defs>
  <style type="text/css">
   <![CDATA[
    .fil0 {fill:gray;fill-rule:nonzero}
    .fil1 {fill:#D90F31;fill-rule:nonzero}
   ]]>
  </style>
 </defs>
 <g id="Слой_x0020_1">
  <metadata id="CorelCorpID_0Corel-Layer"/>
  <path class="fil0" d="M2774.85 4543.41c-510.41,0 -925.59,415.36 -925.59,925.77 0,510.87 415.18,926.5 925.59,926.5 510.77,0 926.23,-415.64 926.23,-926.5 0,-510.41 -415.46,-925.77 -926.23,-925.77zm-749.39 -406.13c-6.12,0 -11.97,1.55 -17.36,4.66 -10.51,5.94 -14.17,14.71 -15.44,19.37 -1.46,5.03 -2.74,15.17 3.47,25.95 9.32,16.27 30.07,22.3 45.51,13.25 8.41,-4.84 13.98,-12.43 16.45,-21.39 1.37,-5.03 2.74,-14.99 -3.29,-25.41 -6.03,-10.33 -16.91,-16.45 -29.34,-16.45zm0 202.98c-60.04,0 -116.25,-32.53 -146.5,-84.99 -23.03,-39.3 -29.06,-85.45 -17.09,-129.59 11.88,-43.59 40.03,-79.6 79.23,-101.44 75.21,-43.96 185.79,-15.99 230.94,61.5 22.48,39.11 28.6,84.63 17,128.4 -11.79,43.96 -40.03,80.79 -79.51,103.54 -25.22,14.71 -54.47,22.57 -84.08,22.57zm-549.25 345.63c-11.88,0 -22.57,6.31 -28.79,16.91 -4.57,7.77 -5.85,17.09 -3.47,25.86 1.28,5.03 5.03,14.35 15.72,20.38 16.36,9.69 37.2,3.02 46.15,-12.7 6.12,-10.51 4.66,-20.56 3.29,-25.59 -1.19,-5.03 -5.12,-14.07 -15.17,-19.83 -5.94,-3.47 -11.7,-5.03 -17.73,-5.03zm-0.18 203.25c-29.61,0 -58.95,-7.95 -84.63,-22.94 -38.93,-22.66 -66.81,-59.13 -78.5,-102.9 -11.52,-43.78 -5.39,-89.38 17.46,-128.68 45.05,-77.68 152.62,-106.29 230.67,-61.41 38.75,22.02 67.08,58.21 78.78,101.9 11.97,43.87 6.03,89.65 -16.63,128.95 -30.16,52.37 -86.45,85.08 -147.14,85.08zm-200.69 546.32c-18.37,0 -33.81,15.44 -33.81,33.72 0,18.37 15.44,33.91 33.81,33.91 19.01,0 33.81,-14.9 33.81,-33.91 0,-18.92 -14.81,-33.72 -33.81,-33.72zm0 203.16c-93.31,0 -169.44,-76.04 -169.44,-169.44 0,-93.31 76.13,-169.25 169.44,-169.25 93.4,0 169.44,75.94 169.44,169.25 0,93.4 -76.04,169.44 -169.44,169.44zm201.51 546.78c-6.12,0 -11.88,1.55 -17.09,4.57 -10.88,6.12 -14.53,14.9 -15.81,19.65 -1.37,5.12 -2.74,15.17 3.47,25.86 9.32,16.27 29.43,22.57 45.79,13.16 16.45,-9.6 22.02,-30.43 12.61,-46.7 -5.94,-10.42 -16.82,-16.54 -28.97,-16.54zm0.09 203.16c-60.04,0 -116.34,-32.63 -146.59,-84.99 -23.03,-39.57 -29.15,-85.54 -17.09,-129.5 11.88,-43.59 40.03,-79.69 79.14,-101.81 75.67,-43.5 186.07,-15.9 230.85,62.05 46.61,80.97 18.83,184.88 -62.14,231.58 -25.5,14.81 -54.65,22.66 -84.17,22.66zm548.06 345.45c-11.97,0 -22.66,6.4 -28.79,16.82 -4.66,8.13 -5.94,17.55 -3.66,26.23 1.37,5.12 5.12,14.44 15.54,20.38 15.72,9.14 37.47,3.02 46.7,-12.89 5.57,-9.78 5.03,-18.73 3.38,-24.68 -2.38,-8.86 -8.04,-16.27 -16.36,-21.02 -5.48,-3.11 -11.06,-4.84 -16.82,-4.84zm-0.18 203.34c-29.79,0 -59.04,-7.77 -84.63,-22.66 -39.11,-22.66 -67.08,-59.13 -78.5,-102.81 -11.7,-43.87 -5.48,-89.65 17.36,-128.95 44.69,-77.77 152.8,-107.02 230.85,-61.14 39.3,22.76 67.54,59.4 79.23,103.27 11.42,43.41 5.3,88.74 -17.18,127.58 -30.16,52.18 -86.64,84.72 -147.14,84.72zm750.03 -2.38c-18.1,0 -33.81,15.63 -33.81,33.63 0,18.46 15.35,33.91 33.81,33.91 18.92,0 33.81,-14.81 33.81,-33.91 0,-18.37 -15.44,-33.63 -33.81,-33.63zm0 203.07c-93.49,0 -169.44,-75.94 -169.44,-169.44 0,-93.22 75.94,-169.25 169.44,-169.25 93.31,0 169.34,76.04 169.34,169.25 0,93.49 -76.04,169.44 -169.34,169.44zm750.03 -404.03c-6.12,0 -11.88,1.74 -17.27,4.84 -16.08,9.41 -21.39,29.34 -11.97,45.51 9.23,16.08 29.79,22.39 45.51,13.16 8.23,-4.66 14.07,-12.34 16.45,-21.39 1.28,-4.94 2.56,-14.81 -3.38,-25.13 -6.12,-10.6 -17.09,-17 -29.34,-17zm0.18 203.34c-60.23,0 -116.34,-32.53 -146.59,-84.9 -46.7,-80.33 -19.37,-183.97 61.05,-230.76 78.87,-45.79 187.07,-16.36 231.85,61.41 22.66,38.75 28.79,84.17 17.09,127.85 -11.61,43.96 -39.75,80.88 -79.14,103.73 -25.59,14.9 -54.74,22.66 -84.26,22.66zm547.7 -751.95c-11.79,0 -22.3,5.94 -27.78,15.9 -9.6,16.72 -4.2,38.11 11.79,47.34 15.9,9.05 37.1,2.92 46.06,-12.7 6.21,-10.78 4.75,-20.56 3.47,-25.5 -1.37,-4.94 -5.3,-14.07 -15.44,-19.83 -6.31,-3.66 -11.97,-5.21 -18.1,-5.21zm0.46 203.16c-29.61,0 -58.95,-7.86 -84.72,-22.94 -80.33,-46.79 -107.84,-150.52 -61.41,-231.31 43.41,-77.13 151.89,-107.2 230.85,-61.5 38.66,21.66 67.08,58.03 78.96,101.9 12.06,43.96 6.12,89.65 -16.82,128.95 -30.07,52.18 -86.27,84.9 -146.86,84.9zm201.06 -953.1c-19.01,0 -33.91,14.81 -33.91,33.72 0,18.73 15.26,33.91 33.91,33.91 18.92,0 33.81,-14.9 33.81,-33.91 0,-18.92 -14.9,-33.72 -33.81,-33.72zm0 203.16c-93.4,0 -169.34,-76.04 -169.34,-169.44 0,-93.31 75.94,-169.25 169.34,-169.25 93.31,0 169.34,75.94 169.34,169.25 0,93.4 -76.04,169.44 -169.34,169.44zm-200.42 -952.73c-6.12,0 -11.97,1.55 -17.46,4.84 -10.05,5.67 -13.8,14.9 -15.17,19.74 -1.46,5.12 -2.65,15.35 3.2,25.77 11.88,21.02 32.17,20.56 45.51,12.89 8.13,-4.75 13.98,-12.25 16.36,-21.2 1.28,-5.03 2.65,-14.81 -3.29,-25.13 -6.21,-10.78 -17,-16.91 -29.15,-16.91zm-0.27 203.25c-60.77,0 -117.07,-32.81 -146.77,-85.81 -22.21,-38.57 -28.24,-84.26 -16.36,-128.04 11.79,-43.68 39.57,-79.87 78.41,-102.17 77.95,-44.87 186.53,-15.99 231.4,61.87 22.48,38.66 28.6,83.99 17,127.58 -11.7,44.05 -39.94,80.79 -79.33,103.73 -25.59,14.9 -54.83,22.85 -84.35,22.85zm-549.34 -751.86c-11.88,0 -22.66,6.12 -28.51,16.45 -4.75,7.95 -5.94,17.27 -3.56,26.14 1.28,5.12 5.03,14.44 15.44,20.56 15.63,9.05 37.29,2.92 46.52,-12.89 6.21,-10.51 4.75,-20.38 3.47,-25.41 -1.37,-4.75 -5.21,-13.98 -15.44,-19.65 -6.21,-3.66 -11.97,-5.21 -17.91,-5.21zm-0.09 202.98c-29.61,0 -58.76,-7.86 -84.44,-22.57 -39.3,-22.76 -67.17,-59.59 -78.69,-103.45 -11.52,-43.78 -5.3,-89.29 17.46,-128.49 45.05,-77.41 152.53,-106.38 230.94,-60.96 38.38,21.48 66.71,57.85 78.78,101.81 12.06,43.87 6.03,89.74 -16.91,129.04 -30.16,52.09 -86.64,84.63 -147.14,84.63zm-749.3 -404.31c-18.1,0 -33.81,15.72 -33.81,33.72 0,18.37 15.35,33.91 33.81,33.91 18.92,0 33.81,-14.9 33.81,-33.91 0,-18.37 -15.44,-33.72 -33.81,-33.72zm0 203.16c-93.49,0 -169.44,-76.04 -169.44,-169.44 0,-93.4 75.94,-169.25 169.44,-169.25 93.31,0 169.34,75.85 169.34,169.25 0,93.4 -76.04,169.44 -169.34,169.44zm0 2392.11c-584.98,0 -1061.12,-476.41 -1061.12,-1062.03 0,-585.17 476.14,-1061.3 1061.12,-1061.3 585.44,0 1061.85,476.14 1061.85,1061.3 0,585.62 -476.41,1062.03 -1061.85,1062.03zm-135.44 1577.38l271.52 0 104.09 -690.9c4.3,-29.52 27.42,-52.55 56.84,-56.94 134.16,-20.29 266.22,-55.47 392.88,-104.55 27.87,-10.42 59.13,-2.28 77.5,21.02l434.74 545.68 235.14 -135.44 -255.25 -650.6c-10.69,-27.42 -2.56,-58.67 20.38,-77.32 108.39,-87.92 205.26,-184.7 287.88,-287.6 18.46,-23.03 50.17,-31.44 77.59,-20.65l650.51 255.07 135.44 -235.05 -545.87 -434.65c-22.94,-18.46 -31.44,-49.72 -21.02,-77.22 49.35,-129.13 84.9,-261.46 105.74,-393.61 4.57,-29.15 27.6,-52 56.84,-56.39l689.71 -103.91 0 -271.61 -689.71 -104.18c-29.34,-4.39 -52.37,-27.23 -56.94,-56.48 -20.56,-131.14 -56.02,-263.66 -105.65,-393.52 -10.42,-27.42 -2.01,-58.58 21.02,-76.95l545.96 -435.65 -135.44 -235.14 -650.51 255.89c-27.69,11.42 -59.31,2.65 -77.77,-20.75 -83.35,-104.37 -180.04,-200.96 -287.42,-287.14 -23.21,-18.46 -31.53,-49.9 -20.75,-77.5l255.25 -651.06 -235.14 -135.99 -434.74 546.69c-18.37,23.12 -50.08,31.8 -77.5,20.93 -125.66,-48.8 -257.99,-84.35 -393.25,-105.55 -29.24,-4.57 -52.18,-27.6 -56.48,-56.94l-104.09 -690.9 -271.52 0 -104 690.9c-4.39,29.24 -27.33,52.37 -56.48,56.94 -135.44,21.2 -267.77,56.84 -393.16,105.55 -27.23,10.97 -59.13,2.38 -77.68,-20.84l-435.2 -546.87 -235.42 136.08 255.98 650.97c10.78,27.78 2.38,59.31 -20.84,77.77 -105.28,83.8 -201.88,180.4 -286.87,286.96 -18.55,23.4 -49.99,32.17 -77.77,20.75l-650.87 -255.98 -136.17 235.24 546.87 435.56c23.21,18.55 31.62,49.9 20.84,77.5 -48.71,125.2 -84.17,257.53 -105.65,393.16 -4.39,29.24 -27.51,52 -56.75,56.39l-690.72 103.18 0 272.61 690.81 103.91c29.15,4.39 52.27,27.23 56.66,56.39 21.75,136.54 57.21,268.78 105.65,393.16 10.78,27.78 2.38,59.13 -21.02,77.68l-546.51 434.65 136.08 235.14 650.87 -255.16c27.42,-10.78 58.85,-2.38 77.5,20.65 84.44,105.19 181.13,201.97 287.42,287.51 22.94,18.55 31.26,49.99 20.47,77.5l-255.8 650.6 235.14 135.44 435.38 -545.78c18.55,-23.4 49.81,-31.53 77.59,-21.02 126.3,49.08 258.54,84.26 392.7,104.55 29.43,4.48 52.55,27.42 56.94,56.94l104 690.9zm329.91 135.44l-388.31 0c-33.45,0 -61.87,-24.49 -66.9,-57.58l-105.28 -699.95c-110.58,-19.56 -219.61,-48.53 -325.44,-86.45l-440.95 552.9c-21.02,26.23 -57.85,33.27 -86.73,16.63l-336.4 -193.75c-29.06,-16.82 -41.4,-52.37 -29.15,-83.62l259.27 -659.1c-85.91,-72.75 -165.6,-152.44 -237.61,-237.7l-659.46 258.45c-30.98,12.34 -66.53,-0.09 -83.35,-29.15l-194.48 -336.22c-16.72,-29.06 -9.78,-66.07 16.54,-86.91l553.73 -440.4c-37.47,-104.28 -66.71,-213.3 -87.09,-324.98l-700.04 -105.37c-33.17,-5.03 -57.67,-33.45 -57.67,-66.9l0 -389.41c0,-33.63 24.58,-62.05 57.85,-66.99l699.86 -104.46c20.29,-111.4 49.44,-220.34 87.09,-325.07l-553.82 -441.23c-26.32,-20.93 -33.17,-57.85 -16.45,-86.91l194.48 -336.13c16.82,-29.24 52.46,-41.58 83.44,-29.24l659.19 259.45c72.56,-86.45 152.25,-166.05 237.7,-237.98l-259.18 -659.19c-12.25,-31.26 0.09,-66.62 29.06,-83.44l336.4 -194.38c28.97,-16.91 65.8,-9.78 86.91,16.36l440.86 554c105.1,-37.84 214.12,-67.17 325.44,-87.37l105.28 -700.04c5.03,-33.17 33.45,-57.76 66.9,-57.76l388.31 0c33.45,0 62.05,24.58 66.99,57.76l105.28 700.04c111.22,20.11 220.34,49.53 325.25,87.37l440.4 -553.91c20.84,-26.41 58.12,-33.45 86.91,-16.45l336.22 194.38c28.97,16.72 41.4,52.18 29.24,83.35l-258.72 659.46c86.73,73.11 166.6,152.71 238.16,237.79l658.92 -259.45c31.07,-12.43 66.71,0 83.53,29.34l193.65 336.13c16.72,28.97 9.69,65.89 -16.45,86.73l-553.18 441.59c38.29,107.29 67.54,216.32 87.46,324.89l698.94 105.37c33.08,4.94 57.76,33.54 57.76,66.99l0 388.4c0,33.45 -24.68,61.87 -57.76,66.9l-699.04 105.28c-19.92,109.12 -49.26,218.05 -87.37,324.98l553.18 440.5c26.14,20.84 33.17,57.76 16.45,86.82l-193.65 336.13c-16.82,29.15 -52.55,41.49 -83.44,29.34l-659.1 -258.45c-71.1,83.9 -150.88,163.4 -238.16,237.61l258.81 659.28c12.15,31.35 -0.27,66.71 -29.34,83.53l-336.31 193.75c-28.7,16.72 -65.71,9.6 -86.73,-16.63l-440.4 -552.9c-105.65,37.93 -214.67,66.9 -325.25,86.45l-105.28 699.95c-4.94,33.08 -33.54,57.58 -66.99,57.58z"/>
  <path class="fil1" d="M5799.38 1255.32c-320.68,0 -581.51,260.92 -581.51,581.6 0,320.32 260.82,580.96 581.51,580.96 320.59,0 581.6,-260.64 581.6,-580.96 0,-320.68 -261.01,-581.6 -581.6,-581.6zm0 1298.18c-395.35,0 -717.04,-321.51 -717.04,-716.58 0,-395.44 321.69,-717.13 717.04,-717.13 395.44,0 717.13,321.69 717.13,717.13 0,395.08 -321.69,716.58 -717.13,716.58zm-68.91 984.08l137.91 0 64.61 -431.17c4.3,-29.34 27.14,-52.18 56.39,-56.75 85.72,-13.71 170.81,-36.28 252.69,-67.54 27.51,-10.33 58.67,-2.01 77.13,21.02l271.88 341.06 118.35 -68.54 -159.66 -405.86c-10.88,-27.51 -2.56,-58.76 20.38,-77.41 65.71,-53.37 127.76,-115.52 184.7,-185.06 18.64,-22.57 49.72,-30.98 77.13,-20.11l405.86 158.93 68.63 -118.53 -340.88 -271.52c-23.4,-18.55 -31.8,-50.08 -20.84,-77.86 30.89,-78.59 53.83,-163.4 67.9,-252.05 4.57,-29.15 27.51,-52 56.84,-56.39l430.44 -64.79 0 -136.81 -430.44 -64.79c-29.34,-4.39 -52.27,-27.14 -56.84,-56.39 -14.07,-88.92 -37.01,-173.64 -67.9,-251.96 -10.97,-27.69 -2.56,-59.4 20.84,-77.95l340.88 -271.52 -68.54 -118.53 -405.95 159.57c-27.23,10.51 -58.67,2.47 -77.32,-20.38 -56.3,-69.46 -118.44,-131.78 -184.51,-185.43 -22.94,-18.64 -31.26,-49.9 -20.38,-77.41l159.66 -405.86 -118.35 -68.54 -271.88 340.97c-18.46,23.12 -49.81,31.16 -77.13,21.11 -81.24,-31.16 -166.15,-53.74 -252.69,-67.45 -29.24,-4.66 -52.09,-27.51 -56.39,-56.84l-64.61 -431.17 -137.91 0 -64.7 431.17c-4.39,29.34 -27.23,52.18 -56.39,56.84 -86.55,13.71 -171.54,36.28 -252.51,67.45 -27.78,10.05 -58.76,1.83 -77.22,-21.2l-270.97 -340.97 -119.26 68.82 159.66 405.68c10.88,27.51 2.56,58.76 -20.29,77.41 -66.35,53.65 -128.49,115.97 -184.61,185.25 -18.55,22.94 -50.17,30.98 -77.32,20.56l-406.59 -159.57 -68.18 118.44 340.88 271.7c23.21,18.46 31.62,49.99 20.84,77.68 -30.98,78.78 -53.74,163.5 -67.63,252.14 -4.66,29.24 -27.69,52 -56.84,56.39l-430.44 64.79 0 136.81 430.44 64.79c29.15,4.39 52.18,27.23 56.84,56.39 13.89,88.37 36.65,173.18 67.63,252.23 10.78,27.78 2.38,59.22 -20.84,77.59l-340.88 271.7 68.36 119.08 406.41 -159.57c27.14,-10.6 58.4,-2.56 77.13,20.2 56.75,69.46 118.99,131.6 184.79,184.97 22.85,18.64 31.16,49.9 20.29,77.41l-159.66 405.77 119.26 68.72 270.97 -341.06c18.55,-23.03 49.9,-31.26 77.13,-21.11 81.7,31.16 166.88,53.83 252.6,67.54 29.15,4.57 52,27.42 56.39,56.75l64.7 431.17zm196.21 135.62l-254.43 0c-33.54,0 -62.05,-24.49 -67.08,-57.76l-66.17 -440.77c-62.05,-12.06 -123.47,-28.6 -183.6,-49.08l-277 348.65c-20.84,26.23 -57.85,33.27 -86.73,16.54l-220.43 -127.12c-29.06,-16.72 -41.49,-52.27 -29.15,-83.44l163.13 -414.82c-46.79,-40.94 -91.66,-85.81 -134.07,-134.25l-415.73 163.04c-30.98,12.52 -66.81,-0.18 -83.44,-29.34l-126.3 -220.16c-16.72,-28.88 -9.69,-65.8 16.45,-86.55l348.1 -277.55c-20.38,-59.13 -36.83,-120.73 -49.26,-184.15l-439.95 -66.26c-33.27,-4.94 -57.76,-33.45 -57.76,-66.9l0 -253.42c0,-33.45 24.49,-61.96 57.76,-66.9l439.86 -66.26c12.34,-63.61 28.88,-125.11 49.26,-184.15l-348.01 -277.55c-26.14,-20.84 -33.17,-57.67 -16.45,-86.73l126.3 -219.33c16.63,-29.15 52.27,-41.67 83.44,-29.34l415.55 163.04c42.13,-48.53 87.19,-93.77 134.25,-134.89l-163.13 -414.82c-12.34,-31.16 0.09,-66.71 29.15,-83.44l220.43 -127.21c29.06,-16.54 65.98,-9.69 86.73,16.63l277 348.56c59.86,-20.38 121.27,-36.83 183.6,-48.98l66.17 -440.77c5.03,-33.27 33.54,-57.76 67.08,-57.76l254.43 0c33.54,0 62.05,24.49 66.99,57.76l65.98 440.77c62.42,12.15 124.02,28.6 183.88,48.98l278.01 -348.65c20.84,-26.23 57.85,-33.08 86.91,-16.36l219.24 127.12c28.97,16.82 41.4,52.18 29.06,83.35l-163.22 414.82c47.16,41.13 92.03,86.36 134.25,134.89l414.91 -163.04c30.89,-12.25 66.53,0.18 83.35,29.24l126.94 219.33c16.91,28.97 9.87,65.98 -16.36,86.91l-348.28 277.37c20.65,58.95 37.1,120.54 49.53,184.24l439.95 66.26c33.08,4.94 57.58,33.45 57.58,66.9l0 253.42c0,33.45 -24.49,61.96 -57.58,66.9l-440.04 66.26c-12.34,63.52 -28.97,125.2 -49.53,184.24l348.38 277.37c26.23,20.93 33.27,57.85 16.36,87l-126.94 219.24c-16.82,28.88 -52,41.22 -83.35,29.15l-415.09 -162.49c-42.31,48.62 -87.09,93.4 -134.07,134.43l163.22 414.82c12.34,31.16 -0.09,66.62 -29.06,83.35l-219.24 127.12c-29.06,16.72 -65.98,9.78 -86.91,-16.36l-278.01 -348.74c-60.23,20.47 -121.73,37.01 -183.88,49.08l-65.98 440.77c-4.94,33.27 -33.45,57.76 -66.99,57.76z"/>
 </g>
</svg>
