<?xml version="1.0" encoding="UTF-8"?>
<!DOCTYPE svg PUBLIC "-//W3C//DTD SVG 1.1//EN" "http://www.w3.org/Graphics/SVG/1.1/DTD/svg11.dtd">
<!-- Creator: CorelDRAW 2018 (64-Bit) -->
<svg xmlns="http://www.w3.org/2000/svg" xml:space="preserve" width="54px" height="61px" version="1.1" style="shape-rendering:geometricPrecision; text-rendering:geometricPrecision; image-rendering:optimizeQuality; fill-rule:evenodd; clip-rule:evenodd"
viewBox="0 0 5400 6089"
 xmlns:xlink="http://www.w3.org/1999/xlink">
 <defs>
  <style type="text/css">
   <![CDATA[
    .icon-el {fill:#4D4D4D}
   ]]>
  </style>
 </defs>
 <g id="Слой_x0020_1">
  <metadata id="CorelCorpID_0Corel-Layer"/>
  <path class="icon-el" d="M2944 3397l-329 0c-39,0 -66,3 -106,3l-222 -329c-10,-15 -15,-1 20,-59 9,-15 18,-29 28,-45 19,-33 36,-61 56,-93l28 -45c11,-18 76,-132 90,-132l412 0c14,0 50,67 58,81 42,71 113,203 152,266 10,15 12,17 -6,46 -47,80 -108,192 -154,264l-27 43zm-2944 1099l0 -209c0,-2 0,-3 0,-4 0,-12 32,-25 42,-31 41,-27 173,-98 222,-126l410 -221c13,-8 29,-20 46,-23 -1,-16 -8,-15 -22,-22 -11,-5 -18,-8 -29,-14l-390 -193c0,-21 -3,-28 -3,-50l0 -229c0,-30 63,-63 86,-76 29,-16 173,-101 200,-94 24,6 95,48 119,63l216 126c6,4 9,4 15,8 10,6 18,11 29,18l201 117c11,6 20,11 30,17 9,5 18,13 30,13 35,0 70,-21 100,-35 60,-27 127,-69 183,-103l52 -31c16,-10 85,-55 103,-60 -4,-14 -39,-32 -54,-40 -49,-26 -322,-185 -359,-211 -12,-8 -32,-17 -35,-31 28,-39 319,-209 377,-247 10,-6 16,-10 27,-16 12,-8 12,-12 27,-16 -11,-15 -294,-170 -321,-186 -16,-10 -92,-56 -110,-56 -23,0 -241,134 -291,164l-122 71c-67,41 -136,81 -207,114 -13,6 -32,16 -48,16 -23,0 -81,-33 -102,-43l-156 -80c0,-14 3,-18 3,-36l0 -193c0,-25 3,-44 3,-73 34,-22 72,-42 107,-62l192 -107c9,-5 16,-9 26,-14l82 -47c12,-6 18,-6 25,-15 -21,-5 -235,-124 -265,-141l-175 -94c-56,-27 -155,-85 -214,-117 -11,-6 -32,-20 -43,-23l0 -339c22,-6 78,-42 104,-55 14,-7 20,-12 34,-19 151,-72 113,-90 236,-21 84,47 168,99 253,145 28,15 56,31 84,48 77,46 159,83 235,131 9,5 12,8 23,10 12,-26 6,-292 10,-368l3 -123c28,-15 81,-55 109,-74 20,-13 35,-24 55,-38 11,-7 18,-11 28,-18 5,-4 21,-16 27,-16 22,0 239,144 272,153l0 726c1,21 -3,27 -3,44l384 220c18,9 35,23 54,29l3 -103c1,-15 3,-14 4,-30 2,-88 -8,-332 20,-389 14,4 44,21 61,28 10,5 8,5 15,9 6,3 10,4 16,7l59 31c12,6 17,10 28,15 19,10 37,20 56,30 44,21 198,111 233,119 13,-156 6,-323 6,-481 0,-10 -9,-11 -17,-16l-63 -36c-16,-8 -29,-15 -43,-24 -104,-62 -212,-118 -317,-180l-189 -110c-14,-9 -25,-17 -38,-25 2,-21 7,-47 7,-70l3 -219c38,-25 77,-46 116,-70 121,-73 110,-77 180,-37 17,11 35,19 53,30 18,10 35,20 54,29l104 59c18,11 34,19 53,30 34,18 72,37 104,58l0 -494c0,-36 3,-60 3,-93 0,-33 0,-66 0,-100 0,-35 4,-60 4,-93 35,-18 154,-99 205,-129 91,-52 67,-46 172,18l92 60c50,34 74,35 78,75 4,43 0,107 0,152 0,205 7,402 7,604 8,-4 15,-8 24,-12l67 -36c30,-17 57,-32 88,-48l174 -98c89,-48 80,-60 134,-24l121 81c16,12 66,50 82,54l0 276c-23,5 -134,72 -161,87l-454 256c-19,11 -69,31 -74,50l5 433c1,19 4,23 4,43 37,-8 323,-193 390,-230 19,-11 36,-23 58,-29 23,35 9,92 14,133 4,40 2,94 2,140 0,94 7,182 7,278 26,-6 109,-57 140,-73 84,-41 163,-92 246,-135 14,-7 41,-26 56,-27l3 -316c0,-38 3,-64 3,-102 0,-141 7,-275 7,-415 22,-5 40,-19 61,-29 223,-100 127,-109 301,-38 35,14 73,28 105,48 37,22 44,51 44,108 0,52 -3,96 -3,150l3 226c0,17 3,20 3,39 8,-2 37,-18 47,-23l657 -352c12,7 22,14 35,21 14,8 23,13 36,21l69 43c13,8 24,14 36,22 29,17 86,41 86,79l0 249c0,46 -29,57 -63,76l-220 129c-34,18 -378,209 -394,233 25,13 49,30 75,44l153 87c26,14 48,27 74,41 26,14 52,29 77,44 7,4 11,6 18,11 9,5 12,6 14,16 4,19 1,151 1,175 -1,150 47,89 -109,183 -11,7 -113,66 -124,66 -26,0 -118,-59 -149,-76 -23,-14 -47,-28 -70,-43 -100,-60 -199,-121 -301,-177l-140 -82c-5,-3 -11,-9 -17,-10 -12,-5 -24,6 -36,13l-275 173c-13,9 -126,76 -130,93 10,2 115,74 134,85l79 50c33,19 192,118 208,140 -24,36 -144,97 -183,122 -10,7 -16,10 -27,16 -11,6 -19,11 -29,17l-176 107c-8,5 -2,4 -13,7 13,17 117,68 137,79 11,6 22,13 34,19l248 127c34,17 37,3 71,-14l448 -249c13,-8 22,-12 35,-18 12,-7 20,-12 34,-19 14,-7 21,-12 34,-19 83,-42 77,-50 170,19 34,25 125,79 133,115 12,51 9,176 3,228 -6,45 -1,39 -34,62 -77,53 -163,94 -244,141 -21,12 -40,22 -61,35 -13,8 -19,12 -31,20 -10,7 -21,9 -24,22 12,3 29,17 41,25l80 48c97,54 188,114 284,169l123 73c25,14 101,64 122,70 0,54 7,281 -8,326 -9,24 -154,84 -182,97l-105 48c-7,2 -2,2 -8,0l-621 -350c-9,-5 -7,-6 -18,-9 0,89 -7,181 -7,269 0,21 -3,28 -3,50 0,34 1,75 -3,104 -2,18 2,37 -5,51 -11,19 -151,88 -172,100 -13,7 -59,34 -73,34 -31,0 -159,-77 -198,-104 -24,-16 -42,-26 -46,-57 -4,-28 -11,-122 -6,-150 6,-44 2,-370 2,-433 0,-54 -4,-95 -4,-149l-114 -65c-20,-12 -37,-21 -57,-32l-279 -156c-7,-1 1,-2 -5,1 -18,18 -4,388 -11,442 -3,19 -5,40 -5,59 -16,-4 -33,-15 -47,-23l-72 -40c-19,-11 -38,-22 -57,-34l-111 -68c-11,-6 -19,-10 -30,-17l-141 -80 -7 421c0,24 -2,38 -3,57l178 107c9,5 14,8 23,13l296 166c50,27 139,69 166,116 7,11 14,38 14,56 0,44 0,161 -5,197 -7,50 -15,50 -71,82l-101 51c-81,41 -77,27 -157,-13 -11,-5 -16,-8 -26,-14l-208 -117c-3,-2 -7,-5 -10,-6l-49 -28c-14,-7 -35,-22 -50,-23 0,89 -19,552 -9,619 4,26 5,60 1,87 -5,33 1,51 -16,73 -22,30 -170,119 -213,143 -19,10 -36,27 -55,18 -20,-11 -38,-21 -57,-33l-84 -53c-6,-4 -7,-5 -14,-9l-64 -42c-22,-16 -38,-15 -43,-47 -7,-48 0,-308 0,-384 0,-45 -4,-78 -4,-123 0,-87 -3,-165 -3,-249 -26,6 -217,118 -257,141l-149 84c-5,3 -14,9 -20,8 -21,-4 -143,-79 -170,-95 -15,-9 -28,-16 -41,-25 -14,-9 -30,-14 -30,-33l0 -272c0,-11 9,-13 16,-17l145 -84c29,-18 56,-32 84,-49 27,-16 54,-32 83,-47l42 -24c16,-8 27,-15 42,-24 29,-16 55,-32 82,-47l127 -73c13,-8 26,-17 39,-24l0 -484c-32,7 -89,51 -119,69 -20,12 -38,26 -58,38 -63,38 -249,170 -297,171 0,-26 -3,-45 -4,-66 -7,-132 -3,-269 -3,-402 0,-10 0,-22 0,-33 0,-16 -3,-15 -3,-30 -30,7 -81,42 -108,58 -36,21 -70,40 -105,61l-212 120c0,37 -3,60 -3,97l-4 288c0,66 0,131 0,196 0,64 -6,122 -6,186 -19,10 -32,19 -50,30l-73 46c-10,6 -15,10 -25,15 -32,20 -66,45 -101,59 -28,10 -158,-88 -196,-114 -16,-10 -39,-16 -40,-39 -3,-49 0,-106 0,-156 0,-102 -7,-208 -7,-309 -33,3 -138,67 -177,89 -70,39 -474,276 -520,276 -15,0 -172,-68 -195,-79 -16,-8 -32,-14 -49,-22 -14,-7 -33,-14 -42,-24 -11,-13 -17,-58 -19,-110z"/>
 </g>
</svg>
