<?xml version="1.0" encoding="UTF-8"?>
<!DOCTYPE svg PUBLIC "-//W3C//DTD SVG 1.1//EN" "http://www.w3.org/Graphics/SVG/1.1/DTD/svg11.dtd">
<!-- Creator: CorelDRAW 2018 (64-Bit) -->
<svg xmlns="http://www.w3.org/2000/svg" xml:space="preserve" width="62px" height="65px" version="1.1" style="shape-rendering:geometricPrecision; text-rendering:geometricPrecision; image-rendering:optimizeQuality; fill-rule:evenodd; clip-rule:evenodd"
viewBox="0 0 588 620"
 xmlns:xlink="http://www.w3.org/1999/xlink">
 <defs>
  <style type="text/css">
   <![CDATA[
    .icon-nb-1 {fill:#4D4D4D}
    .icon-nb-2 {fill:#D90F31}
    .icon-nb-3 {fill:#4D4D4D;fill-rule:nonzero}
   ]]>
  </style>
 </defs>
 <g id="Слой_x0020_1">
  <metadata id="CorelCorpID_0Corel-Layer"/>
  <g id="_2317315813472">
   <path class="icon-nb-1" d="M356 333l0 0zm-120 -229c0,-4 0,-7 1,-10 1,-10 0,-30 0,-42 9,1 41,24 50,32 39,34 78,77 82,132 2,27 2,48 -3,74l-10 43c7,-5 22,-26 26,-35 11,-21 14,-37 16,-62 3,1 2,1 3,4 11,18 16,26 26,47 4,9 12,27 15,36 8,24 11,32 17,61 15,75 -15,139 -84,174 -5,2 -23,10 -28,10 3,-6 12,-12 17,-17 6,-6 11,-13 15,-20 12,-23 14,-44 14,-72 0,-2 -26,-27 -27,-28 0,5 2,22 1,27 -3,20 -1,25 -11,45 -2,5 -5,8 -9,12 -1,2 -1,3 -3,4 6,-28 0,-59 -14,-83 -4,-6 -6,-10 -9,-16 -2,-2 -3,-5 -5,-7 -6,-8 -33,-39 -41,-43 0,3 -1,5 -1,9 0,22 -3,43 -12,62 -11,22 -28,47 -22,73 1,4 2,5 2,9 -3,0 -4,-2 -6,-4 -2,-2 -2,-2 -4,-5 -13,-18 -15,-28 -15,-52 0,-20 8,-35 17,-51 1,-2 2,-5 4,-7 10,-17 19,-35 24,-54 7,-25 6,-15 -11,-34 0,30 -17,55 -29,80 -10,19 -29,53 -29,80 0,24 0,37 14,59 7,11 24,26 25,30 -8,-2 -15,-6 -22,-9 -33,-17 -59,-45 -74,-79 -6,-14 -10,-34 -10,-53 0,-21 5,-42 13,-61 8,-23 37,-70 51,-93 1,-2 4,-7 5,-10 30,-64 37,-79 41,-156z"/>
   <path class="icon-nb-2" d="M366 431c-18,-37 -52,-70 -100,-98 1,3 -1,7 -4,17 -5,19 -14,37 -24,54 -2,2 -3,5 -4,7 -9,16 -17,31 -17,51 0,24 2,34 15,52 2,3 2,3 4,5 2,2 3,4 6,4 0,-4 -1,-5 -2,-9 -6,-26 11,-51 22,-73 9,-19 12,-40 12,-62 0,-4 1,-6 1,-9 8,4 35,35 41,43 2,2 3,5 5,7 3,6 5,10 9,16 14,24 20,55 14,83 2,-1 2,-2 3,-4 4,-4 7,-7 9,-12 10,-20 8,-25 11,-45 1,-5 -1,-22 -1,-27z"/>
   <polygon class="icon-nb-3" points="10,0 588,611 578,620 0,9 "/>
  </g>
 </g>
</svg>
