<?xml version="1.0" encoding="UTF-8"?>
<!DOCTYPE svg PUBLIC "-//W3C//DTD SVG 1.1//EN" "http://www.w3.org/Graphics/SVG/1.1/DTD/svg11.dtd">
<!-- Creator: CorelDRAW 2018 (64-Bit) -->
<svg xmlns="http://www.w3.org/2000/svg" xml:space="preserve" width="36px" height="46px" version="1.1" style="shape-rendering:geometricPrecision; text-rendering:geometricPrecision; image-rendering:optimizeQuality; fill-rule:evenodd; clip-rule:evenodd"
viewBox="0 0 140 179"
 xmlns:xlink="http://www.w3.org/1999/xlink">
 <defs>
  <style type="text/css">
   <![CDATA[
    .shv-fil0 {fill:white}
   ]]>
  </style>
 </defs>
 <g id="Слой_x0020_1">
  <metadata id="CorelCorpID_0Corel-Layer"/>
  <path class="shv-fil0" d="M0 19c0,8 6,16 14,19 4,1 10,-1 10,3l0 95c0,9 -14,-1 -21,14 -7,14 2,29 17,29l102 0c12,0 18,-12 18,-23 0,-4 -4,-10 -8,-13 -5,-3 -7,-3 -15,-3l0 -101c5,-1 13,1 20,-9 5,-6 4,-15 0,-21 0,-2 -3,-4 -5,-5 -4,-4 -6,-3 -11,-4l-97 0c-3,0 -3,-1 -9,1 -3,0 -6,2 -8,3 -3,4 -7,10 -7,15zm59 121c3,0 21,1 23,-1 -4,0 -5,-2 -12,-4 -4,1 -5,3 -11,5zm-3 -101c1,1 12,5 14,5 6,0 6,-2 15,-4 -3,-3 -17,-1 -26,-1 -1,0 -2,0 -3,0zm31 90c0,2 1,3 3,3 3,1 3,1 6,2 2,1 9,4 12,4l0 -7c-1,-11 2,-10 -8,-7l-9 3c-1,1 -3,1 -4,2zm0 -78l9 3c4,1 12,6 12,0 0,-2 0,-3 0,-5 0,-9 2,-9 -11,-4 -4,1 -10,2 -10,6zm0 37l0 4 21 5c0,-5 0,-9 0,-15 -6,0 -15,5 -21,6zm-55 37l1 13c3,0 14,-5 18,-6 3,-1 2,-1 4,-3 -2,-1 -5,-1 -7,-2 -2,-1 -2,-1 -5,-2 -3,-1 -11,-5 -11,0zm1 -68c5,0 13,-4 16,-5 2,-1 4,0 6,-1 -5,-3 -17,-9 -22,-9 0,6 -1,9 0,15zm-1 27c0,16 -1,15 8,12l11 -4c3,-1 3,0 3,-4 0,0 -10,-3 -12,-3 -2,-1 -10,-6 -10,-1zm37 0c6,0 11,-2 16,-4l19 -7c2,0 4,0 4,-3 0,-5 -4,-3 -8,-5l-15 -5c-22,-8 -11,-6 -24,-2 -5,1 -14,4 -20,6 -5,2 -7,2 -8,5 -1,4 4,4 7,5 2,1 1,1 5,2 4,1 21,8 24,8zm-36 25c0,5 3,4 8,6l14 5c7,2 15,7 21,3 4,-2 3,-1 9,-3l22 -7c1,-6 1,-6 -3,-7 -5,-1 -30,-11 -33,-11 -4,0 -14,5 -20,6l-14 5c-2,1 -4,0 -4,3zm-24 -92c0,5 1,9 7,12 5,2 44,1 52,1 9,0 53,2 57,-1 3,-2 3,-2 5,-4 5,-9 -3,-16 -8,-16l-103 0c-6,0 -10,7 -10,8zm0 142c0,7 6,11 13,11l98 0c4,0 12,-4 12,-10 0,-14 -16,-11 -26,-11l-36 0c-16,1 -39,-1 -52,0 -6,1 -9,7 -9,10z"/>
 </g>
</svg>
