<?xml version="1.0" encoding="UTF-8"?>
<!DOCTYPE svg PUBLIC "-//W3C//DTD SVG 1.1//EN" "http://www.w3.org/Graphics/SVG/1.1/DTD/svg11.dtd">
<!-- Creator: CorelDRAW 2018 (64-Bit) -->
<svg xmlns="http://www.w3.org/2000/svg" xml:space="preserve" width="7.6723mm" height="1.0523mm" version="1.1" style="shape-rendering:geometricPrecision; text-rendering:geometricPrecision; image-rendering:optimizeQuality; fill-rule:evenodd; clip-rule:evenodd"
viewBox="0 0 46.96 6.44"
 xmlns:xlink="http://www.w3.org/1999/xlink">
 <defs>
  <style type="text/css">
   <![CDATA[
    .fil1 {fill:white}
    .fil0 {fill:white;fill-rule:nonzero}
   ]]>
  </style>
 </defs>
 <g id="Слой_x0020_1">
  <metadata id="CorelCorpID_0Corel-Layer"/>
  <path class="fil0" d="M2.05 6.44c-0.6,0 -1.1,-0.2 -1.48,-0.6 -0.38,-0.4 -0.57,-0.94 -0.57,-1.61 0,-0.64 0.18,-1.17 0.55,-1.59 0.36,-0.42 0.87,-0.63 1.52,-0.63 0.6,0 1.09,0.2 1.46,0.59 0.38,0.39 0.57,0.92 0.57,1.58 0,0.68 -0.19,1.23 -0.57,1.64 -0.38,0.41 -0.87,0.62 -1.47,0.62zm-0.01 -0.97c0.22,0 0.38,-0.1 0.48,-0.29 0.1,-0.19 0.15,-0.55 0.15,-1.07 0,-0.75 -0.2,-1.12 -0.61,-1.12 -0.43,0 -0.65,0.43 -0.65,1.28 0,0.8 0.21,1.2 0.63,1.2zm6.28 0.91l-1.08 0 -1.18 -1.9c-0.15,-0.24 -0.3,-0.54 -0.45,-0.89 0.07,0.28 0.1,0.51 0.1,0.71l0 2.08 -1.07 0 0 -4.3 1.24 0 1 1.57c0.2,0.31 0.35,0.59 0.45,0.83 -0.07,-0.37 -0.1,-0.74 -0.1,-1.13l0 -1.27 1.08 0 0 4.3zm3.76 -1.06l0 1.06 -3.02 0 0 -4.3 1.32 0 0 3.24 1.7 0zm1.78 -3.24l0 4.3 -1.32 0 0 -4.3 1.32 0zm4.42 4.3l-1.08 0 -1.18 -1.9c-0.15,-0.24 -0.3,-0.54 -0.45,-0.89 0.07,0.28 0.1,0.51 0.1,0.71l0 2.08 -1.07 0 0 -4.3 1.24 0 1 1.57c0.2,0.31 0.35,0.59 0.45,0.83 -0.07,-0.37 -0.1,-0.74 -0.1,-1.13l0 -1.27 1.08 0 0 4.3zm3.98 -1.03l0 1.03 -3.24 0 0 -4.3 3.24 0 0 0.99 -1.94 0 0 0.63 1.57 0 0 0.95 -1.57 0 0 0.7 1.94 0z"/>
  <path class="fil1" d="M23.54 2.06l0 4.31 0.79 0 0 -1.69 0.91 0c1.08,0 1.47,-0.72 1.47,-1.34 0,-0.56 -0.28,-0.87 -0.52,-1.03 -0.36,-0.25 -0.77,-0.26 -1.14,-0.26l-1.5 0zm0.79 2l0 -1.37 0.77 0c0.24,0 0.47,0.06 0.6,0.18 0.14,0.12 0.21,0.32 0.21,0.49 0,0.18 -0.08,0.4 -0.21,0.52 -0.2,0.19 -0.45,0.18 -0.63,0.18l-0.74 0zm3.01 -2l0 4.31 0.79 0 0 -1.77 0.94 0 0.75 1.77 0.87 0 -0.85 -1.93c0.76,-0.29 0.77,-1.02 0.77,-1.14 0,-0.44 -0.2,-0.77 -0.42,-0.94 -0.35,-0.28 -0.89,-0.3 -1.07,-0.3l-1.79 0zm0.79 0.63l0.87 0c0.33,0 0.82,0.06 0.82,0.62 0,0.18 -0.06,0.33 -0.15,0.43 -0.18,0.21 -0.45,0.23 -0.55,0.23l-1 0 0 -1.28zm4.99 -0.69c-0.37,0 -0.85,0.08 -1.26,0.47 -0.29,0.28 -0.62,0.8 -0.62,1.75 0,0.96 0.33,1.48 0.62,1.75 0.4,0.38 0.89,0.47 1.26,0.47 0.37,0 0.86,-0.08 1.26,-0.47 0.29,-0.28 0.62,-0.8 0.62,-1.75 0,-0.96 -0.33,-1.48 -0.62,-1.75 -0.4,-0.38 -0.89,-0.47 -1.26,-0.47zm0 0.63c0.21,0 0.51,0.07 0.73,0.4 0.21,0.32 0.29,0.83 0.29,1.19 0,0.36 -0.08,0.87 -0.29,1.2 -0.22,0.33 -0.52,0.4 -0.73,0.4 -0.21,0 -0.51,-0.07 -0.73,-0.4 -0.21,-0.32 -0.29,-0.83 -0.29,-1.2 0,-0.36 0.08,-0.87 0.29,-1.19 0.22,-0.33 0.52,-0.4 0.73,-0.4zm3.71 -0.57l-1.1 0 0 4.31 0.63 0 0 -3.54 0.01 0 1.22 3.54 0.53 0 1.2 -3.54 0.01 0 0 3.54 0.79 0 0 -4.31 -1.12 0 -1.07 3.07 -0.01 0 -1.08 -3.07zm5.45 -0.02c-0.27,0.06 -0.56,0.18 -0.82,0.42 -0.29,0.28 -0.62,0.8 -0.62,1.75 0,0.96 0.33,1.48 0.62,1.75 0.4,0.38 0.89,0.47 1.26,0.47 0.37,0 0.86,-0.08 1.26,-0.47 0.29,-0.28 0.62,-0.8 0.62,-1.75 0,-0.05 -0,-0.11 -0,-0.16l-0.86 0c0,0.06 0,0.11 0,0.16 0,0.36 -0.08,0.87 -0.29,1.2 -0.22,0.33 -0.52,0.4 -0.73,0.4 -0.21,0 -0.51,-0.07 -0.73,-0.4 -0.21,-0.32 -0.29,-0.83 -0.29,-1.2 0,-0.36 0.08,-0.87 0.29,-1.19 0.09,-0.13 0.19,-0.22 0.29,-0.28l0 -0.7z"/>
  <path class="fil1" d="M42.79 0l4.17 0 0 0.81 0 2.08 0 0.64 -3.56 0 0 -0.64 -0.61 0 0 -2.89zm0 0.54l3.96 0 0 2.99 -0.13 0 0 -2.87 -3.84 0 0 -0.13zm1.36 2.07l0 -0.73c0,-0.17 0.02,-0.32 0.17,-0.41 0.06,-0.04 0.13,-0.05 0.21,-0.05 0.02,0 0.05,0 0.07,0.01l0 -0.43c-0.03,-0 -0.06,-0.01 -0.08,-0.01 -0.16,0 -0.26,0.08 -0.31,0.13 -0.04,0.04 -0.1,0.13 -0.12,0.25l-0.01 0 0 -0.35 -0.4 0 0 1.59 0.46 0zm0.72 -1.59l0 1.03c0,0.17 0.02,0.35 0.18,0.48 0.08,0.07 0.19,0.11 0.33,0.11 0.23,0 0.4,-0.13 0.48,-0.31l0.01 0 0 0.28 0.43 0 0 -1.59 -0.46 0 0 0.9c0,0.08 -0.01,0.18 -0.07,0.26 -0.05,0.07 -0.13,0.11 -0.21,0.11 -0.07,0 -0.12,-0.03 -0.16,-0.07 -0.05,-0.07 -0.05,-0.18 -0.05,-0.24l0 -0.96 -0.46 0z"/>
  <polygon class="fil0" points="42.29,0.54 42.79,0.54 42.79,0.66 42.35,0.66 42.35,4 46.62,4 46.62,3.53 46.75,3.53 46.75,4.12 42.23,4.12 42.23,0.54 "/>
 </g>
</svg>
