<?xml version="1.0" encoding="UTF-8"?>
<!DOCTYPE svg PUBLIC "-//W3C//DTD SVG 1.1//EN" "http://www.w3.org/Graphics/SVG/1.1/DTD/svg11.dtd">
<!-- Creator: CorelDRAW 2018 (64-Bit) -->
<svg xmlns="http://www.w3.org/2000/svg" xml:space="preserve" width="147px" height="83px" version="1.1" style="shape-rendering:geometricPrecision; text-rendering:geometricPrecision; image-rendering:optimizeQuality; fill-rule:evenodd; clip-rule:evenodd"
viewBox="0 0 2988 1681"
 xmlns:xlink="http://www.w3.org/1999/xlink">
 <defs>
  <style type="text/css">
   <![CDATA[
    .3r-fil0 {fill:#4D4D4D}
   ]]>
  </style>
 </defs>
 <g id="Слой_x0020_1">
  <metadata id="CorelCorpID_0Corel-Layer"/>
  <g id="_2317315838176">
   <path class="3r-fil0" d="M360 1524l1 -227 657 0 0 354 -658 0 0 -127zm799 128l646 1c-100,-35 -171,-106 -179,-253 -3,-48 3,-93 21,-128l-329 -1c15,28 24,70 19,137 -10,141 -80,211 -178,244zm720 19l-792 -1c-124,21 -272,6 -397,6 -264,0 -630,68 -649,-276 -2,-51 4,-99 25,-135 64,-115 79,79 132,-327 39,-297 -71,-525 235,-530l116 -2c21,-8 8,7 16,-17 -13,-9 -33,-8 -46,-9 -132,-8 -91,-132 -78,-231 24,-183 69,-146 249,-146 216,0 226,-19 248,146 19,150 56,231 -124,231 3,38 2,30 54,29 67,-1 147,-6 205,24 46,23 70,55 83,95 8,-26 22,-50 41,-69 29,-29 69,-47 113,-47l348 0c44,0 84,18 113,47 18,17 31,39 39,63 23,-70 78,-112 207,-114l116 -2c22,-8 9,7 17,-17 -13,-9 -34,-8 -47,-9 -131,-8 -90,-132 -77,-231 24,-183 69,-146 248,-146 216,0 227,-19 248,146 19,150 56,231 -124,231 3,38 2,30 54,29 67,-1 147,-6 206,24 149,76 72,252 109,514 6,42 29,231 49,251 31,33 119,26 106,210 -24,335 -387,268 -648,268 -124,0 -272,15 -395,-5zm-572 -418l350 1c59,-91 74,76 125,-316 20,-148 3,-278 18,-372 -2,-37 -18,-70 -42,-95 -26,-25 -61,-41 -100,-41l-348 0c-39,0 -74,16 -100,41 -26,26 -42,61 -42,100l0 23c5,56 2,125 3,203 1,10 1,20 2,31 1,28 3,57 5,86 1,11 3,22 4,33 6,42 30,231 49,251 17,18 51,24 76,55zm511 -653l0 37 0 26c1,29 3,57 3,84 0,67 -6,129 -13,184l0 0 0 0c-16,113 -39,200 -39,259 61,18 67,10 120,43 52,33 34,42 119,38l0 -835c-75,-8 -144,28 -170,77 -13,26 -18,56 -20,87zm127 924l1 -227 657 0 0 354 -658 0 0 -127zm-25 127c-114,-2 -190,-50 -231,-118 -96,-161 -11,-353 130,-307 36,12 91,42 99,73 10,35 2,294 2,352zm708 0c0,-79 -11,-280 0,-345 9,-50 143,-132 230,-47 79,76 63,389 -230,392zm-595 -840l481 -1 1 462 -478 -1 -4 -460zm510 460l-3 -835c80,-9 146,31 169,77 34,67 10,283 36,461 10,64 34,158 34,216 -59,18 -67,9 -120,43 -55,36 -30,41 -116,38zm-510 -837l482 -1 -1 350 -479 1 -2 -350zm142 -37c6,-10 -8,-17 44,-17l110 0c37,0 35,-7 44,17 -20,18 -52,11 -91,11 -48,0 -79,7 -107,-11zm84 -42c-182,0 -239,27 -220,-113 27,-191 2,-214 134,-214 353,-1 302,-31 334,199 22,165 -44,128 -248,128zm-1923 1296c-115,-2 -191,-50 -231,-118 -96,-161 -12,-353 129,-307 37,12 92,42 100,73 9,35 2,294 2,352zm707 0c0,-79 -10,-280 1,-345 8,-50 142,-132 229,-47 79,76 63,389 -230,392zm-594 -840l480 -1 1 462 -478 -1 -3 -460zm509 460l-2 -835c80,-9 145,31 169,77 34,67 9,283 36,461 9,64 34,158 34,216 -60,18 -68,9 -120,43 -55,36 -31,41 -117,38zm-774 -81c1,-88 52,-238 52,-443 0,-76 -16,-169 18,-234 25,-49 95,-85 169,-77l0 835c-85,4 -67,-5 -118,-38 -53,-33 -59,-25 -121,-43zm265 -756l482 -1 -1 350 -480 1 -1 -350zm142 -37c5,-10 -8,-17 44,-17l109 0c37,0 36,-7 45,17 -21,18 -52,11 -92,11 -47,0 -79,7 -106,-11zm83 -42c-182,0 -239,27 -219,-113 26,-191 1,-214 134,-214 352,-1 302,-31 333,199 23,165 -43,128 -248,128z"/>
   <path class="3r-fil0" d="M1647 379l0 6c10,4 27,3 42,19 7,7 14,20 16,31 1,7 -1,8 5,10 6,0 3,-11 9,-24 9,-19 25,-31 46,-34 6,-1 10,-1 7,-8 -4,-3 -38,1 -54,-37 -2,-6 -3,-23 -8,-23 -8,0 -2,23 -20,41 -19,18 -25,14 -43,19zm-452 133l0 5c8,7 40,-1 69,31 38,41 21,51 31,69 10,0 8,-6 10,-16 2,-8 4,-14 7,-21 11,-29 40,-55 72,-59 10,-1 18,0 18,-10 -7,-4 -29,-6 -40,-11 -31,-14 -50,-40 -56,-73 -2,-9 -1,-18 -11,-17 -8,12 4,34 -31,69 -28,29 -57,24 -69,33zm276 -324l-2 0c-6,12 -6,78 -73,108 -7,3 -15,5 -23,7 -5,1 -9,1 -13,2 -12,2 -9,2 -11,5 2,5 3,4 9,5 35,6 46,11 72,33 34,28 35,77 38,83 10,1 6,-16 16,-44 6,-13 17,-29 25,-37 19,-17 33,-26 60,-32 8,-2 20,-1 23,-8 -7,-12 -33,5 -82,-39 -14,-12 -28,-38 -32,-59 -2,-8 -2,-19 -7,-24z"/>
   <path class="3r-fil0" d="M0 637l0 6c10,4 27,3 42,19 7,6 14,20 16,30 1,7 -1,9 5,11 6,-1 3,-11 9,-24 9,-20 25,-31 46,-34 6,-1 10,-1 7,-8 -4,-4 -38,1 -54,-38 -2,-6 -3,-22 -8,-22 -9,0 -2,23 -20,41 -19,18 -25,14 -43,19z"/>
   <path class="3r-fil0" d="M68 475l0 6c10,4 27,3 42,19 7,7 14,20 16,31 1,7 -1,8 5,10 7,0 3,-11 9,-24 9,-19 25,-31 47,-34 6,-1 9,-1 6,-8 -3,-3 -38,1 -54,-37 -2,-6 -3,-23 -8,-23 -8,0 -2,23 -20,41 -18,18 -25,14 -43,19z"/>
   <path class="3r-fil0" d="M2862 1125l0 7c10,4 27,3 42,18 6,7 14,21 15,31 1,7 0,9 6,11 6,-1 3,-11 9,-24 9,-20 24,-32 46,-35 6,0 10,-1 6,-7 -3,-4 -37,0 -53,-38 -3,-6 -4,-22 -8,-23 -9,0 -2,23 -21,41 -18,18 -25,14 -42,19z"/>
  </g>
 </g>
</svg>
