<?xml version="1.0" encoding="UTF-8"?>
<!DOCTYPE svg PUBLIC "-//W3C//DTD SVG 1.1//EN" "http://www.w3.org/Graphics/SVG/1.1/DTD/svg11.dtd">
<!-- Creator: CorelDRAW 2018 (64-Bit) -->
<svg xmlns="http://www.w3.org/2000/svg" xml:space="preserve" width="18.9761mm" height="1.8009mm" version="1.1" style="shape-rendering:geometricPrecision; text-rendering:geometricPrecision; image-rendering:optimizeQuality; fill-rule:evenodd; clip-rule:evenodd"
viewBox="0 0 985.99 93.57"
 xmlns:xlink="http://www.w3.org/1999/xlink">
 <defs>
  <style type="text/css">
   <![CDATA[
    .fil0 {fill:#4D4D4D;fill-rule:nonzero}
   ]]>
  </style>
 </defs>
 <g id="Слой_x0020_1">
  <metadata id="CorelCorpID_0Corel-Layer"/>
  <path class="fil0" d="M135.13 21.1c-0.85,3.91 -2.63,6.91 -5.32,8.99 -2.69,2.08 -5.2,3.73 -7.52,4.95l0.18 0c-6.36,3.55 -13.4,5.33 -21.1,5.33l-5.32 0 3.49 -16.7 -54.31 0 -9.73 46.23 54.5 0 3.67 -17.8 34.49 0 -4.22 20c-0.73,3.67 -2.17,6.82 -4.31,9.45 -2.14,2.63 -4.71,4.83 -7.71,6.6 -3,1.77 -6.37,3.09 -10.1,3.94 -3.73,0.86 -7.61,1.28 -11.65,1.28l-65.32 0c-3.91,0 -7.52,-0.49 -10.82,-1.47 -3.3,-0.98 -6.05,-2.38 -8.26,-4.22 -2.2,-1.83 -3.82,-4.04 -4.86,-6.61 -1.04,-2.57 -1.19,-5.44 -0.46,-8.62l11.01 -51.92c0.61,-2.94 1.92,-5.66 3.94,-8.17 2.02,-2.5 4.56,-4.68 7.61,-6.51 3.06,-1.83 6.45,-3.27 10.18,-4.31 3.73,-1.04 7.61,-1.56 11.65,-1.56l65.14 0c8.93,0 15.72,1.77 20.36,5.32 4.65,3.55 6.24,8.81 4.77,15.78zm68.44 72.29l5.32 -25.68 -38.53 0 -1.65 7.71c-0.73,3.67 -1.9,6.51 -3.49,8.53 -1.59,2.02 -3.79,3.82 -6.6,5.41 -4.77,2.69 -10.33,4.04 -16.69,4.04l-3.86 0 11.19 -53.39c1.35,-5.87 4.49,-10.15 9.45,-12.84 4.95,-2.69 10.43,-4.04 16.42,-4.04l70.45 0 -14.86 70.27 -27.15 0zm10.83 -51.37l-38.53 0 -1.47 6.97 38.53 0 1.47 -6.97zm99.08 51.56l-25.69 -44.59 36.51 0 1.47 -6.97 -38.71 0 -7.15 33.39c-0.73,3.54 -1.93,6.54 -3.58,8.99 -1.65,2.45 -3.88,4.34 -6.7,5.69 -2.2,1.22 -4.65,2.02 -7.34,2.38 -2.69,0.36 -5.45,0.55 -8.26,0.55l-4.77 0 14.86 -69.91 70.09 0c6.97,0 12.14,1.38 15.5,4.13 3.36,2.75 4.49,6.82 3.39,12.2l-2.57 12.29c-1.83,9.05 -8.38,14.31 -19.63,15.77 1.23,2.08 2.54,4.28 3.94,6.61 1.41,2.32 2.79,4.61 4.13,6.88 1.35,2.26 2.66,4.46 3.94,6.6 1.28,2.14 2.48,4.13 3.58,5.96l-33.03 0zm177.42 -21.1c-1.59,7.34 -5.62,12.69 -12.11,16.06 -6.48,3.36 -14.31,5.05 -23.49,5.05l-62.75 0c-3.91,0 -7.59,-0.49 -11.01,-1.47 -3.42,-0.98 -6.33,-2.48 -8.71,-4.49 -2.38,-2.02 -4.13,-4.49 -5.23,-7.43 -1.1,-2.94 -1.23,-6.36 -0.37,-10.28l89.54 0 2.38 -11.19 -60.18 0c-3.92,0 -7.55,-0.43 -10.92,-1.28 -3.37,-0.85 -6.21,-2.17 -8.53,-3.94 -2.33,-1.77 -4.01,-4.01 -5.05,-6.7 -1.04,-2.69 -1.2,-5.81 -0.46,-9.36l3.12 -14.67c0.85,-4.04 2.38,-7.49 4.59,-10.37 2.2,-2.87 4.86,-5.23 7.98,-7.06 3.12,-1.83 6.55,-3.18 10.28,-4.04 3.73,-0.86 7.61,-1.28 11.65,-1.28l64.03 0c9.17,0 16.17,1.83 21.01,5.5 4.83,3.67 6.33,9.73 4.49,18.17l-88.99 0 -2.38 11.19 58.16 0c3.79,0 7.46,0.37 11.01,1.1 3.55,0.73 6.6,1.9 9.18,3.49 2.57,1.59 4.46,3.67 5.68,6.24 1.23,2.57 1.47,5.63 0.74,9.18l-3.67 17.61zm120.91 -43.85c-0.74,3.42 -2.05,6.05 -3.95,7.89 -1.9,1.83 -4.01,3.15 -6.33,3.94 -2.32,0.79 -4.65,1.25 -6.97,1.38 -2.32,0.12 -4.28,0.18 -5.87,0.18l-12.66 0 -7.52 35.23c-1.22,5.75 -3.39,9.88 -6.51,12.38 -3.12,2.51 -8.11,3.76 -14.95,3.76l-8.99 0 10.83 -51.37 -33.39 0 0.92 -4.59c1.22,-5.5 3.57,-9.26 7.06,-11.28 3.49,-2.02 8.11,-3.03 13.85,-3.03l75.59 0 -1.1 5.51zm100.35 48.99c-1.22,5.5 -4.22,9.51 -8.99,12.01 -4.77,2.51 -10.27,3.76 -16.51,3.76l-48.25 0c-6,0 -10.83,-1.47 -14.5,-4.4 -3.67,-2.94 -5.01,-6.79 -4.04,-11.56l8.07 -38.35c0.49,-2.32 1.53,-4.49 3.12,-6.51 1.59,-2.02 3.52,-3.7 5.78,-5.05 2.27,-1.35 4.83,-2.42 7.71,-3.21 2.88,-0.79 5.78,-1.2 8.72,-1.2l48.25 0c6.61,0 11.69,1.35 15.23,4.04 3.55,2.69 4.71,6.73 3.49,12.11l-8.07 38.35zm-19.26 -35.6l-38.53 0 -6.97 32.84 38.53 0 6.97 -32.84zm98.71 51.56l-25.68 -44.59 36.51 0 1.47 -6.97 -38.71 0 -7.15 33.39c-0.73,3.54 -1.93,6.54 -3.57,8.99 -1.65,2.45 -3.89,4.34 -6.7,5.69 -2.2,1.22 -4.65,2.02 -7.34,2.38 -2.69,0.36 -5.44,0.55 -8.26,0.55l-4.77 0 14.87 -69.91 70.08 0c6.97,0 12.14,1.38 15.5,4.13 3.36,2.75 4.49,6.82 3.39,12.2l-2.57 12.29c-1.83,9.05 -8.38,14.31 -19.63,15.77 1.22,2.08 2.54,4.28 3.94,6.61 1.41,2.32 2.78,4.61 4.13,6.88 1.35,2.26 2.66,4.46 3.95,6.6 1.28,2.14 2.47,4.13 3.57,5.96l-33.03 0zm69.72 -0.19c-2.94,0 -5.65,-0.39 -8.16,-1.19 -2.5,-0.79 -4.62,-1.9 -6.33,-3.3 -1.71,-1.41 -2.97,-3.09 -3.76,-5.05 -0.79,-1.96 -0.95,-4.16 -0.46,-6.6l11.56 -54.13 26.79 0 -14.86 70.27 -4.78 0zm116.51 -16.14c-1.22,5.5 -4.25,9.6 -9.08,12.29 -4.83,2.69 -10.73,4.04 -17.71,4.04l-46.23 0c-2.94,0 -5.72,-0.4 -8.34,-1.2 -2.63,-0.79 -4.86,-1.98 -6.7,-3.58 -1.83,-1.58 -3.15,-3.54 -3.95,-5.87 -0.79,-2.33 -0.88,-5.02 -0.27,-8.07l66.05 0 1.47 -7.15 -43.85 0c-2.94,0 -5.66,-0.34 -8.17,-1.01 -2.5,-0.67 -4.61,-1.68 -6.33,-3.02 -1.71,-1.35 -3,-3.03 -3.85,-5.05 -0.86,-2.02 -0.98,-4.37 -0.37,-7.07l2.38 -11.01c0.61,-3.06 1.77,-5.69 3.49,-7.89 1.71,-2.2 3.76,-4.01 6.15,-5.41 2.38,-1.41 4.98,-2.45 7.8,-3.12 2.81,-0.67 5.68,-1.01 8.62,-1.01l47.34 0c6.97,0 12.26,1.47 15.87,4.41 3.61,2.94 4.68,7.76 3.21,14.49l-65.32 0 -1.47 6.97 42.01 0c2.94,0 5.72,0.28 8.34,0.83 2.63,0.55 4.93,1.43 6.88,2.66 1.95,1.22 3.39,2.81 4.31,4.77 0.92,1.96 1.07,4.34 0.46,7.15l-2.75 12.84z"/>
 </g>
</svg>
