<?xml version="1.0" encoding="UTF-8"?>
<!DOCTYPE svg PUBLIC "-//W3C//DTD SVG 1.1//EN" "http://www.w3.org/Graphics/SVG/1.1/DTD/svg11.dtd">
<!-- Creator: CorelDRAW 2018 (64-Bit) -->
<svg xmlns="http://www.w3.org/2000/svg" xml:space="preserve" width="36px" height="33px" version="1.1" style="shape-rendering:geometricPrecision; text-rendering:geometricPrecision; image-rendering:optimizeQuality; fill-rule:evenodd; clip-rule:evenodd"
viewBox="0 0 110 104"
 xmlns:xlink="http://www.w3.org/1999/xlink">
 <defs>
  <style type="text/css">
   <![CDATA[
    .cart0 {fill:#D90F31}
   ]]>
  </style>
 </defs>
 <g id="Слой_x0020_1">
  <metadata id="CorelCorpID_0Corel-Layer"/>
  <path class="cart0" d="M36 66c-2,0 -2,2 -3,5 -1,2 -2,4 -3,6 -1,3 -3,7 0,9 1,0 2,0 4,0 -1,2 -2,3 -3,5 -1,7 4,13 11,13 7,0 11,-6 10,-13 0,-2 -1,-3 -2,-5l23 0c-1,1 -1,2 -2,3 0,0 -1,1 -1,2 -2,12 15,18 20,7 3,-6 0,-9 -1,-12 3,0 6,0 6,-3 0,-3 -4,-3 -6,-3l-53 0 3 -9c2,1 21,0 26,0 8,0 17,0 25,0 6,0 5,-2 7,-6 1,-4 2,-7 3,-10 2,-7 4,-13 6,-20 1,-3 2,-7 3,-10 2,-4 2,-7 -4,-7l-78 0c-1,0 -2,-5 -3,-6 -1,-3 -1,-4 -3,-6 -5,-1 -9,-3 -13,-5 -3,-1 -5,-2 -7,0 -2,2 -1,5 1,6l14 5c2,1 1,1 2,3l18 51zm43 23c-6,2 -2,11 3,9 2,-1 4,-3 3,-6 0,-2 -3,-4 -6,-3zm-38 0c-6,1 -4,10 2,9 6,-2 4,-11 -2,-9zm40 -25l8 0c1,-1 3,-6 3,-7l-11 0 0 7zm-38 0l8 0 0 -7 -11 0c0,1 2,5 3,7zm15 0l16 0 0 -7 -16 0 0 7zm0 -31l1 0 15 0 0 -8 -16 0 0 8zm23 16l13 1 3 -10 -16 0 0 9zm-43 0l13 0 0 -9 -17 0 4 9zm20 0l1 1 15 -1 0 -9 -16 0 0 9zm23 -16l18 0 3 -8 -21 0 0 8zm-49 0l19 0 0 -8 -22 0 3 8z"/>
 </g>
</svg>
