<?xml version="1.0" encoding="UTF-8"?>
<!DOCTYPE svg PUBLIC "-//W3C//DTD SVG 1.1//EN" "http://www.w3.org/Graphics/SVG/1.1/DTD/svg11.dtd">
<!-- Creator: CorelDRAW 2018 (64-Bit) -->
<svg xmlns="http://www.w3.org/2000/svg" xml:space="preserve" width="50px" height="49px" version="1.1" style="shape-rendering:geometricPrecision; text-rendering:geometricPrecision; image-rendering:optimizeQuality; fill-rule:evenodd; clip-rule:evenodd"
viewBox="0 0 392 381"
 xmlns:xlink="http://www.w3.org/1999/xlink">
 <defs>
  <style type="text/css">
   <![CDATA[
    .kh-fil0 {fill:#4D4D4D}
    .kh-fil1 {fill:#D90F31}
   ]]>
  </style>
 </defs>
 <g id="Слой_x0020_1">
  <metadata id="CorelCorpID_0Corel-Layer"/>
  <g id="_1517825133488">
   <path class="kh-fil0" d="M61 121c2,-8 34,-74 41,-91 3,-7 1,-12 7,-13 3,5 -10,46 -12,54 -2,9 -7,16 -10,24 -4,7 -8,16 -10,24 -9,-1 -9,0 -16,2zm53 160c-20,-65 -47,-73 -52,-91 -2,-9 -7,-41 -1,-48 1,-2 8,-7 11,-7 7,1 16,37 21,49 5,11 26,31 34,38 4,3 6,5 9,8 13,10 17,14 27,27 6,7 11,13 16,21 6,9 8,12 9,26 1,19 -2,47 -13,57 -8,7 -21,0 -27,-4 -8,-5 -13,-10 -20,-15l-30 -24c-12,-11 -39,-33 -45,-45 -23,-40 -38,-53 -36,-106l4 -50c1,-7 0,-8 4,-13 6,-7 57,-77 61,-81 -7,21 -37,76 -42,96 -3,10 -2,10 -1,19 1,3 -2,14 -2,21 3,65 25,52 44,95 4,8 12,25 14,33l15 -6zm179 6c2,-5 13,-34 22,-49 3,-5 6,-8 10,-12 18,-20 24,-31 25,-67 0,-4 0,-8 0,-12 0,-8 4,-11 -2,-29 -3,-9 -23,-53 -29,-64 -4,-8 -12,-24 -14,-32l50 66c15,22 14,14 17,40 7,73 6,80 -29,138 -2,3 -3,6 -5,9 -5,7 -23,25 -29,29 -3,3 -5,5 -7,7l-48 38c-36,30 -47,-14 -49,-45 -1,-13 -1,-12 5,-22 4,-6 7,-11 11,-16 14,-18 22,-25 36,-37 13,-10 25,-23 36,-36 10,-12 19,-57 27,-58 3,1 7,3 9,5 8,6 4,25 3,34 -3,23 -5,24 -16,37 -10,11 -15,16 -23,33 -6,12 -11,24 -16,37l16 6zm38 -166c-8,-2 -11,-4 -20,-1 -4,-10 -32,-96 -28,-103 6,0 3,6 12,26 6,11 35,71 36,78zm-132 231c4,4 6,13 17,20 17,11 37,0 51,-11l67 -57c13,-12 14,-14 23,-28 21,-34 36,-57 34,-107 0,-19 -1,-48 -5,-65 -1,-5 -25,-35 -29,-41l-38 -51c-11,-15 -13,0 -25,-9 -4,-3 -8,-4 -14,-2 -23,6 -13,30 -8,48 5,20 9,36 16,54 12,37 11,29 3,54 -10,27 -8,23 -27,43 -6,6 -11,11 -18,17 -4,3 -8,5 -10,8 -4,4 -5,5 -9,8 -5,5 -27,32 -30,40l-9 -12c-33,-43 -35,-35 -62,-63 -21,-22 -17,-18 -26,-45 -3,-7 -10,-20 -9,-26 5,-17 18,-37 22,-51 3,-12 14,-49 14,-59 -1,-10 -10,-16 -19,-17 -8,0 -10,3 -14,5 -3,2 -10,-1 -15,1 -3,1 -6,6 -8,9 -3,4 -5,7 -8,11l-46 62c-7,9 -10,9 -12,24 -3,21 -4,44 -5,67 -1,44 22,75 39,104 6,10 27,30 35,36l20 17c17,13 43,39 63,44 32,8 38,-21 42,-28z"/>
   <path class="kh-fil1" d="M196 107c-8,-13 -32,-20 -51,-9 -13,7 -26,25 -20,47 3,11 9,16 14,22 8,9 37,34 48,42 3,3 5,6 9,8 7,-4 33,-28 39,-33 10,-8 28,-23 32,-39 9,-32 -21,-59 -50,-52 -10,3 -15,8 -21,14z"/>
  </g>
 </g>
</svg>
