<?xml version="1.0" encoding="UTF-8"?>
<!DOCTYPE svg PUBLIC "-//W3C//DTD SVG 1.1//EN" "http://www.w3.org/Graphics/SVG/1.1/DTD/svg11.dtd">
<!-- Creator: CorelDRAW 2018 (64-Bit) -->
<svg xmlns="http://www.w3.org/2000/svg" xml:space="preserve" width="46px" height="46px" version="1.1" style="shape-rendering:geometricPrecision; text-rendering:geometricPrecision; image-rendering:optimizeQuality; fill-rule:evenodd; clip-rule:evenodd"
viewBox="0 0 4600 4600"
 xmlns:xlink="http://www.w3.org/1999/xlink">
 <defs>
  <style type="text/css">
   <![CDATA[
    .ks-fil0 {fill:#D90F31}
    .ks-fil1 {fill:#4D4D4D;fill-rule:nonzero}
   ]]>
  </style>
 </defs>
 <g id="Слой_x0020_1">
  <metadata id="CorelCorpID_0Corel-Layer"/>
  <g id="_1517504687760">
   <path class="ks-fil0" d="M996 3291c-117,-75 -144,-226 -296,-177 -36,129 -42,680 14,775 91,37 683,34 770,-6 24,-143 -52,-118 -186,-292l725 -725c233,-244 -52,-540 -284,-303 -134,136 -665,688 -743,728zm2312 -2295c-33,70 -579,603 -705,723 -278,268 43,541 261,319 86,-87 157,-160 245,-246 87,-86 162,-154 249,-241 79,-79 165,-178 249,-243 122,72 147,192 268,190 81,-93 44,-460 44,-680 0,-114 -10,-126 -135,-126 -774,0 -803,-44 -476,304zm-2579 501c101,5 195,-137 267,-190 106,68 377,363 490,474 189,185 398,486 581,265 161,-193 -112,-364 -292,-554 -97,-101 -430,-406 -477,-492 58,-70 207,-162 186,-278 -62,-36 -721,-66 -780,0 -42,47 -19,310 -19,391 0,146 -26,301 44,384zm2579 2091c-56,94 -242,187 -171,292 67,47 679,52 764,1 41,-84 30,-673 4,-769 -152,-42 -188,116 -298,182 -106,-68 -377,-366 -488,-476 -203,-203 -377,-460 -564,-284 -199,185 98,400 263,565 166,166 324,332 490,489z"/>
   <path class="ks-fil1" d="M603 0l3395 0c165,0 315,68 425,177l0 0c109,110 177,260 177,426l0 3395c0,165 -68,315 -177,425l0 0c-110,109 -260,177 -425,177l-3395 0c-166,0 -316,-68 -426,-177l0 0c-109,-110 -177,-260 -177,-425l0 -3395c0,-166 68,-316 177,-426l0 0c110,-109 260,-177 426,-177zm3395 261l-3395 0c-94,0 -180,39 -241,100l-1 1c-61,61 -100,147 -100,241l0 3395c0,94 39,179 100,240l1 1c61,62 147,100 241,100l3395 0c94,0 179,-38 240,-100l1 -1c61,-61 100,-146 100,-240l0 -3395c0,-94 -38,-180 -100,-241l-1 -1c-61,-61 -146,-100 -240,-100z"/>
  </g>
 </g>
</svg>
