<?xml version="1.0" encoding="UTF-8"?>
<!DOCTYPE svg PUBLIC "-//W3C//DTD SVG 1.1//EN" "http://www.w3.org/Graphics/SVG/1.1/DTD/svg11.dtd">
<!-- Creator: CorelDRAW 2018 (64-Bit) -->
<svg xmlns="http://www.w3.org/2000/svg" xml:space="preserve" width="77px" height="85px" version="1.1" style="shape-rendering:geometricPrecision; text-rendering:geometricPrecision; image-rendering:optimizeQuality; fill-rule:evenodd; clip-rule:evenodd"
viewBox="0 0 845 930"
 xmlns:xlink="http://www.w3.org/1999/xlink">
 <defs>
  <style type="text/css">
   <![CDATA[
    .fel-fil0 {fill:#4D4D4D}
    .fel-fil1 {fill:#D90F31}
    .fel-fil2 {fill:#4D4D4D;fill-rule:nonzero}
   ]]>
  </style>
 </defs>
 <g id="Слой_x0020_1">
  <metadata id="CorelCorpID_0Corel-Layer"/>
  <g id="_1517828357536">
   <g>
    <path class="fel-fil0" d="M406 223c10,3 14,9 28,2 5,-2 7,-2 11,2 23,22 11,49 -6,58 -39,21 -76,-36 -33,-62zm313 464c-38,-56 -48,-122 -25,-187 14,-40 40,-73 61,-95l42 -37c8,-6 15,-10 23,-16 7,-4 20,-11 25,-15l-105 -146c-9,5 -9,8 -31,17 -11,5 -26,8 -40,9 -58,6 -101,-20 -129,-68 -14,-23 -18,-43 -28,-71l-33 0c5,-31 -2,-57 -29,-71 -35,-20 -96,2 -84,70l-34 1c-15,47 -28,93 -75,122 -40,24 -95,24 -137,1 -6,-3 -11,-8 -16,-10 -6,5 -69,96 -78,109 -5,6 -8,11 -13,17 -4,7 -10,13 -13,20l42 27c101,74 159,186 94,307 -15,28 -39,49 -61,72l-3 3c-5,2 -7,4 -12,7l-12 10 124 145c24,-18 21,-22 56,-40 51,-26 102,-21 146,12 15,11 26,22 37,36l11 14 12 -13c58,-72 134,-88 212,-31l26 22c40,-45 91,-100 125,-145 0,-1 -1,-1 -1,-1 0,0 0,-1 -1,-1 -34,-30 -47,-30 -76,-74zm-586 -264c-5,-7 -13,-17 -17,-22 -21,-20 -57,-57 -85,-70 1,-5 15,-22 19,-28 11,-15 51,-74 60,-83 29,11 43,20 80,20 80,0 128,-53 153,-122 2,-6 3,-13 6,-19l22 0 10 36c-8,2 -6,-1 -9,8 -2,5 -4,8 -5,13l20 8c0,0 1,0 1,0l10 39c-27,15 -39,42 -29,71 23,63 121,40 109,-30 -5,-32 -30,-45 -59,-47l-25 -98 102 0c4,9 8,25 13,36 25,60 75,105 144,105 39,-1 51,-8 82,-20 7,8 49,69 59,83 5,6 18,22 20,28 -18,9 -55,40 -72,57 -96,95 -113,229 -22,336 18,21 21,23 45,42 -1,4 -12,16 -16,20 -26,31 -52,61 -78,92l-27 -19c-31,-19 -67,-32 -106,-28 -27,2 -47,11 -67,23 -21,13 -33,27 -49,42 -14,-15 -28,-30 -48,-42 -105,-64 -188,19 -201,24 -3,-5 -7,-9 -11,-14l-71 -84c-4,-4 -10,-9 -12,-14l31 -27c85,-92 104,-213 23,-316zm256 -346c-15,-26 7,-56 33,-56 26,0 48,29 34,57l-67 -1z"/>
    <path class="fel-fil1" d="M414 157l17 0 -1 -22 -15 0 -1 22zm-215 516c4,4 13,7 19,9 6,-8 10,-22 12,-32l-20 -6c-3,5 -9,22 -11,29zm136 -465c3,4 11,11 16,13 3,-5 14,-17 18,-26 0,0 0,-1 0,-1l-8 -5c-4,-2 -5,-4 -10,-5 -2,6 -12,18 -16,24zm-209 150c2,4 6,8 10,12 4,4 6,8 11,11 4,-2 14,-11 15,-14l-22 -23c-3,3 -11,10 -14,14zm-44 -36c5,4 14,12 20,15 3,-3 10,-11 13,-15 -2,-4 -2,-2 -3,-5 -1,-4 7,-2 -7,-11 -3,-2 -5,-4 -9,-6 -1,2 -2,3 -3,5 -3,4 -10,12 -11,17zm26 -38c5,4 13,10 18,12 1,-2 3,-4 4,-6 3,0 6,2 10,0l4 -19 -22 -6 -14 19zm64 13c9,0 24,2 32,-1l1 -4c0,-1 0,-4 0,-6l-2 -10 -28 0 -1 4c-1,1 -1,3 -1,5 0,4 -1,8 -1,12zm62 -26l5 20c12,-2 21,-7 32,-9l-8 -20 -29 9zm56 -23c1,4 9,15 10,18 9,-4 22,-15 27,-20 -4,-6 -8,-11 -14,-16l-17 13c-1,1 -2,2 -3,3l-2 2c-1,0 -1,0 -1,0zm350 49l32 0c0,-7 0,-17 -2,-22l-29 1 -1 10c-1,5 -1,7 0,11zm-66 -15c10,2 20,7 31,9l6 -20 -29 -9 -8 20zm127 -11l4 20 10 -1 4 6c5,-1 12,-8 17,-11l-13 -20 -22 6zm-19 96l16 14c5,-3 6,-7 10,-11 1,-1 2,-2 3,-3 4,-3 7,-6 8,-9l-14 -14 -23 23zm-164 -121c5,5 18,16 26,20l11 -18 -12 -8c-5,-4 -7,-7 -11,-10 -6,5 -10,10 -14,16zm-43 -51c3,7 15,23 20,26 2,-2 4,-3 7,-5 3,-3 6,-5 8,-8 -4,-6 -14,-18 -16,-24 -5,1 -6,2 -10,5 -1,0 -3,1 -4,2l-5 4zm255 127c3,4 10,12 13,15 5,-3 15,-11 20,-15l-14 -22c-4,2 -11,7 -15,9 -4,4 -3,1 -2,6 1,8 1,0 -2,7zm-108 462c-11,-2 -21,-7 -33,-8l-3 21 30 7 6 -20zm-98 -10c-3,4 0,14 1,21l31 -2 0 -21 -32 2zm-307 -254l3 32 16 -1c1,0 0,0 2,-1 5,-1 2,0 3,-1l-3 -32 -21 3zm449 308c4,-6 11,-12 14,-18 -5,-5 -8,-9 -14,-13 -4,1 -3,1 -6,4l-7 -3 -9 18c2,2 -1,0 3,3 0,0 2,1 3,1l16 8zm-487 0c5,-1 8,-3 12,-6l7 -4c2,-1 1,0 3,-2l-10 -18 -7 3c-3,-3 -1,-3 -5,-4 -6,4 -9,8 -15,13l15 18zm141 -32c0,-5 1,-7 1,-12 1,-1 1,-4 1,-5l-1 -5 -32 -2 0 21 31 3zm286 -178l18 -3c4,-2 2,-1 3,-2l-3 -30 -21 1 3 34zm-383 166c0,6 4,16 7,20l29 -8 -4 -20c-11,1 -22,6 -32,8zm181 46c2,2 15,13 18,15 4,-2 16,-13 19,-15 -3,-4 -8,-13 -12,-17l-7 4 -6 -4c-4,3 -10,13 -12,17zm-206 -369l11 29c5,-1 15,-4 20,-6l-11 -31 -20 8zm19 152l21 5 4 -34 -22 -1 -3 30zm425 99c3,8 12,22 18,28l17 -12 -17 -26c-6,2 -13,7 -18,10zm-265 102c3,-3 9,-15 10,-20 -10,-2 -20,-10 -32,-11l-6 20c11,2 19,8 28,11zm-214 -37c-3,-9 -5,-1 0,-10 -5,-5 -9,-9 -15,-14 -5,3 -16,14 -17,20 6,5 10,12 16,17l16 -13zm480 -355l18 11c5,-10 14,-19 17,-28 -6,-2 -11,-7 -16,-10 -5,2 -17,21 -19,27zm-476 -17c1,5 11,19 16,28l19 -10c-3,-8 -15,-26 -19,-28 -7,4 -10,8 -16,10zm515 372c3,2 5,5 8,7l7 5c0,0 0,1 1,1 6,-5 10,-12 16,-17 -2,-6 -4,-8 -8,-12 -4,-3 -4,-5 -10,-8 -5,5 -10,9 -14,14 5,9 3,1 0,10zm-514 -49l16 12c5,-4 17,-21 18,-28l-17 -10c-3,4 -6,8 -8,13 -3,4 -7,8 -9,13zm290 66c2,7 5,15 10,20 9,-3 17,-9 28,-11l-6 -21c-12,2 -22,10 -32,12zm145 -245c5,3 16,2 22,3l3 -32 -21 -3 -4 32zm12 101c2,10 7,25 12,32 6,-2 14,-5 19,-9l-11 -28 -20 5zm0 -167c6,3 16,6 21,7l11 -29 -20 -9 -12 31zm-169 -326l9 0 5 8 18 -8 -9 -22 -22 0 -1 22z"/>
   </g>
   <path class="fel-fil2" d="M313 512l39 0c0,-4 0,-8 0,-11 -1,-4 -2,-7 -4,-9 -1,-3 -4,-5 -7,-6 -3,-2 -7,-3 -12,-3 -5,0 -10,1 -13,2 -4,1 -7,3 -10,4l0 -18c3,-2 8,-3 12,-5 5,-1 10,-1 15,-1 7,0 14,1 19,3 5,2 9,5 12,9 3,4 5,8 7,13 1,5 2,10 2,16 0,10 -1,19 -4,28 -2,9 -6,16 -11,23 -5,6 -12,11 -19,15 -8,3 -18,5 -28,5 -3,0 -6,0 -8,0 -3,0 -5,-1 -8,-1 -2,-1 -4,-1 -6,-2 -2,-1 -4,-1 -5,-2l9 -18c2,1 5,2 9,3 3,1 7,1 12,1 5,0 9,0 13,-2 4,-1 8,-3 11,-6 3,-3 6,-6 8,-9 2,-4 3,-8 4,-12l-41 0 4 -17zm98 17l-7 0 -10 46 -20 0 23 -108 20 0 -10 48 5 -2 37 -46 24 0 -39 46 -10 5 7 6 24 51 -23 0 -21 -46zm57 6c0,-10 1,-19 4,-28 3,-8 6,-16 11,-22 5,-6 11,-11 18,-15 7,-4 14,-5 23,-5 5,0 11,0 15,2 4,2 8,4 11,8 4,3 6,8 8,13 2,5 2,11 2,19 0,9 -1,18 -4,27 -2,8 -6,16 -11,22 -4,7 -10,12 -17,16 -7,3 -14,5 -22,5 -12,0 -21,-3 -28,-10 -6,-8 -10,-18 -10,-32zm21 -1c0,7 2,13 5,18 2,4 7,6 14,6 4,0 9,-1 13,-4 3,-3 7,-7 10,-11 2,-5 4,-11 6,-17 1,-6 2,-12 2,-19 0,-8 -1,-14 -5,-18 -3,-4 -7,-6 -13,-6 -4,0 -9,2 -13,4 -3,3 -7,7 -10,11 -2,5 -5,10 -6,16 -2,7 -3,13 -3,20z"/>
  </g>
 </g>
</svg>
