<?xml version="1.0" encoding="UTF-8"?>
<!DOCTYPE svg PUBLIC "-//W3C//DTD SVG 1.1//EN" "http://www.w3.org/Graphics/SVG/1.1/DTD/svg11.dtd">
<!-- Creator: CorelDRAW 2018 (64-Bit) -->
<svg xmlns="http://www.w3.org/2000/svg" xml:space="preserve" width="102px" height="36px" version="1.1" style="shape-rendering:geometricPrecision; text-rendering:geometricPrecision; image-rendering:optimizeQuality; fill-rule:evenodd; clip-rule:evenodd"
viewBox="0 0 3590 1270"
 xmlns:xlink="http://www.w3.org/1999/xlink">
 <defs>
  <style type="text/css">
   <![CDATA[
    .fal-fil0 {fill:#4D4D4D}
    .fal-fil1 {fill:#D90F31}
    .fal-fil2 {fill:#4D4D4D;fill-rule:nonzero}
   ]]>
  </style>
 </defs>
 <g id="Слой_x0020_1">
  <metadata id="CorelCorpID_0Corel-Layer"/>
  <g id="_1517512317104">
   <path class="fal-fil0" d="M251 624c0,-127 138,-219 229,-265 83,-41 82,-41 169,-74 61,-23 120,-37 185,-57 29,-8 66,-16 98,-23 31,-6 68,-15 101,-20 553,-92 1166,-95 1711,42 153,39 451,134 552,287 46,71 47,146 0,216 -76,114 -268,199 -392,240 -159,53 -245,67 -408,99 -112,22 -344,45 -463,48l-121 5c-43,0 -78,4 -126,4l-184 -4c-27,0 -33,-4 -58,-5 -209,-2 -673,-70 -870,-149l-91 -34c-121,-48 -332,-159 -332,-310zm1540 547c463,0 961,-60 1352,-258 188,-96 348,-283 159,-472 -46,-46 -99,-80 -156,-113 -108,-63 -268,-116 -392,-148 -148,-38 -418,-88 -573,-95 -40,-1 -84,-9 -126,-9 -29,1 -36,-4 -62,-4 -23,-1 -46,0 -68,0 -28,0 -35,-5 -63,-5l-130 0c-29,0 -39,4 -62,5 -22,1 -46,0 -68,0 -29,0 -37,4 -63,4 -127,2 -363,34 -484,55 -265,44 -841,197 -857,484 -3,65 41,138 84,181 133,133 360,212 545,262 144,40 292,62 455,83 154,20 334,30 509,30z"/>
   <path class="fal-fil0" d="M1786 13c109,0 205,8 305,9l138 11c141,18 238,24 391,53 231,46 266,58 470,127 119,39 283,124 376,217 220,220 41,409 -161,528 -129,77 -287,126 -429,168 -315,93 -769,131 -1099,131 -448,0 -806,-55 -1174,-164 -39,-11 -74,-23 -111,-37 -166,-66 -477,-208 -472,-423 1,-43 13,-83 32,-114 20,-33 37,-59 64,-85 252,-249 770,-340 1107,-387l563 -34zm-1786 602c0,82 12,123 65,191 54,69 123,119 200,163l95 48c134,58 154,69 319,117 288,83 708,136 1022,136 297,0 429,-3 728,-40 165,-20 336,-54 482,-96 75,-22 146,-44 216,-72 60,-24 145,-62 198,-93 101,-58 265,-181 265,-314 0,-82 -12,-123 -65,-191 -85,-109 -218,-180 -345,-234 -95,-41 -165,-64 -269,-94 -287,-83 -708,-136 -1022,-136 -297,0 -429,3 -728,40 -235,28 -535,95 -748,189 -112,49 -226,107 -313,194 -37,37 -100,122 -100,192z"/>
   <path class="fal-fil1" d="M3523 592c-26,0 -33,0 -54,5 -9,38 2,50 -27,108 -90,180 -215,236 -386,305 -302,120 -886,197 -1185,197 -266,0 -412,-1 -680,-42 -273,-42 -515,-96 -757,-208 -19,-8 -29,-11 -46,-21 -69,-41 -92,-41 -165,-114 -26,-26 -76,-90 -89,-122 -19,-50 14,-72 -67,-72 -6,-9 -8,-15 -18,-22 -11,49 4,82 37,129 10,13 21,29 32,40 58,63 117,117 195,160 256,142 587,209 879,252 264,39 421,43 688,43 183,0 353,-23 516,-46 311,-44 905,-164 1110,-438 39,-51 44,-75 44,-131 0,-21 -6,-36 -18,-45 -3,12 -4,13 -9,22z"/>
   <path class="fal-fil1" d="M3114 960c53,-4 173,-84 217,-129 29,-28 52,-60 74,-96 22,-38 41,-75 41,-134 -41,0 -30,11 -37,49 -2,14 -15,47 -22,62l-72 104c-3,3 -6,7 -8,9 -27,28 -51,47 -84,69l-101 61c-9,6 -2,1 -8,5z"/>
   <path class="fal-fil1" d="M417 929c-7,-10 -24,-20 -36,-27 -38,-22 -84,-55 -115,-86 -52,-52 -79,-103 -95,-174 -14,-1 -17,-2 -27,-5 0,88 72,163 136,214 30,24 104,70 137,78z"/>
   <path class="fal-fil2" d="M979 394l169 0 -49 41 0 378c23,2 42,3 58,3 37,0 65,-8 84,-24 19,-16 32,-42 38,-78 10,28 21,55 34,79 12,24 24,41 34,52l-368 0 49 -41 0 -369 -49 -41z"/>
   <path id="1" class="fal-fil2" d="M1529 383c59,0 105,20 138,59 36,41 53,101 53,181 0,74 -17,133 -53,175 -33,39 -79,58 -138,58 -59,0 -105,-19 -138,-58 -35,-42 -53,-102 -53,-179 0,-76 18,-136 53,-177 32,-39 78,-58 138,-59zm-4 29c-24,0 -46,9 -64,27 -17,15 -28,36 -36,65 -7,29 -11,67 -11,115 0,67 9,118 26,151 9,17 21,31 38,41 17,11 35,16 54,16 25,0 47,-9 65,-26 31,-29 47,-88 47,-178 0,-37 -2,-68 -6,-92 -4,-24 -11,-45 -20,-62 -9,-17 -22,-31 -39,-41 -16,-10 -34,-16 -54,-16z"/>
   <path id="2" class="fal-fil2" d="M2159 399l-66 129c-3,-29 -10,-52 -22,-70 -8,-14 -20,-25 -34,-33 -17,-9 -35,-14 -56,-14 -37,0 -68,14 -93,41 -17,18 -28,38 -34,60 -9,30 -14,63 -14,100 0,136 57,204 169,204 10,0 30,-1 58,-3l0 -173 -97 0c-49,0 -73,-16 -73,-48 0,-10 3,-19 10,-26 6,-7 14,-11 24,-11 6,0 12,3 17,7 4,4 7,10 7,16 0,6 -2,10 -4,13 -3,2 -8,4 -16,6 -3,1 -5,2 -5,5 0,6 8,8 24,8l233 0 -49 41 0 153 49 41 -166 0c-39,0 -66,-1 -84,-4 -17,-2 -33,-6 -48,-12 -43,-19 -76,-50 -98,-94 -18,-36 -27,-76 -27,-120 0,-43 8,-82 25,-117 19,-41 48,-71 87,-92 30,-16 62,-24 93,-24 24,0 52,5 83,14 23,7 37,11 43,12 5,2 12,2 19,2 15,0 30,-4 45,-11z"/>
   <path id="3" class="fal-fil2" d="M2414 383c59,0 105,20 139,59 35,41 53,101 53,181 0,74 -18,133 -53,175 -33,39 -79,58 -138,58 -59,0 -105,-19 -139,-58 -35,-42 -53,-102 -53,-179 0,-76 18,-136 53,-177 33,-39 79,-58 138,-59zm-3 29c-24,0 -46,9 -65,27 -16,15 -28,36 -35,65 -8,29 -11,67 -11,115 0,67 8,118 25,151 9,17 22,31 39,41 17,11 35,16 53,16 25,0 47,-9 66,-26 31,-29 46,-88 46,-178 0,-37 -2,-68 -6,-92 -4,-24 -10,-45 -19,-62 -9,-17 -22,-31 -39,-41 -17,-10 -35,-16 -54,-16z"/>
  </g>
 </g>
</svg>
