<?xml version="1.0" encoding="UTF-8"?>
<!DOCTYPE svg PUBLIC "-//W3C//DTD SVG 1.1//EN" "http://www.w3.org/Graphics/SVG/1.1/DTD/svg11.dtd">
<!-- Creator: CorelDRAW 2019 (64-Bit) -->
<svg xmlns="http://www.w3.org/2000/svg" xml:space="preserve" width="4.9445mm" height="5.9042mm" version="1.1" style="shape-rendering:geometricPrecision; text-rendering:geometricPrecision; image-rendering:optimizeQuality; fill-rule:evenodd; clip-rule:evenodd"
viewBox="0 0 494.5 590.48"
 xmlns:xlink="http://www.w3.org/1999/xlink">
 <defs>
  <style type="text/css">
   <![CDATA[
    .fil0 {fill:#D90F31}
   ]]>
  </style>
 </defs>
 <g id="Слой_x0020_1">
  <metadata id="CorelCorpID_0Corel-Layer"/>
  <path class="fil0" d="M475.57 492.14c61.36,-62.36 -40.64,-192.51 -104.57,-217.02 -99.75,75.54 -148.23,75.14 -242.96,0.01 -52.92,19.4 -148.49,163.08 -124.13,196.08 115.74,156.86 340.78,153.95 471.67,20.93l0 0zm-210.5 -492.14c-17.55,0 -36.25,0.73 -53.34,5.05 -64.29,16.24 -111.1,77.85 -110,144.07 1.32,80.3 64.15,144.18 143.37,146.49 80.13,2.34 148.42,-61.32 151.83,-137.15 3.58,-79.63 -47.19,-142.99 -125.14,-156.55l-6.72 -1.92 0 0z"/>
 </g>
</svg>
